seq_len,cutoff
1,6
2,12
3,18
4,24
5,30
6,36
7,36
8,42
9,42
10,42
11,48
12,48
13,48
14,48
15,48
16,48
17,48
18,48
19,48
20,54
21,54
22,54
23,54
24,54
25,54
26,54
27,54
28,54
29,54
30,54
31,54
32,60
33,60
34,54
35,54
36,54
37,60
38,60
39,54
40,54
41,54
42,54
43,54
44,60
45,60
46,60
47,60
48,60
49,60
50,60
51,60
52,60
53,60
54,60
55,60
56,60
57,54
58,54
59,60
60,54
61,60
62,60
63,54
64,60
65,60
66,60
67,60
68,60
69,60
70,60
71,54
72,60
73,60
74,60
75,60
76,54
77,60
78,60
79,60
80,60
81,54
82,60
83,60
84,54
85,60
86,54
87,60
88,54
89,60
90,60
91,60
92,60
93,54
94,60
95,60
96,60
97,60
98,54
99,60
100,60
110,60
120,60
130,54
140,60
150,60
160,60
170,60
180,60
190,60
200,60
210,60
220,54
230,60
240,60
250,60
260,54
270,54
280,60
290,60
300,60
310,60
320,54
330,54
340,60
350,60
360,60
370,54
380,60
390,54
400,54
410,54
420,60
430,60
440,60
450,60
460,60
470,54
480,54
490,60
500,60
510,60
520,60
530,60
540,60
550,60
560,60
570,60
580,54
590,60
600,54
610,60
620,60
630,60
640,60
650,60
660,54
670,60
680,60
690,60
700,60
710,60
720,60
730,60
740,60
750,60
760,54
770,60
780,60
790,60
800,60
810,60
820,60
830,54
840,60
850,60
860,60
870,54
880,60
890,60
900,60
910,54
920,60
930,60
940,60
950,54
960,54
970,60
980,60
990,60
1000,54
