seq_len,cutoff
1,6
2,12
3,18
4,18
5,18
6,24
7,24
8,24
9,24
10,24
11,30
12,30
13,30
14,30
15,30
16,30
17,30
18,30
19,30
20,30
21,30
22,30
23,30
24,30
25,30
26,30
27,30
28,30
29,30
30,30
31,30
32,30
33,30
34,30
35,30
36,30
37,30
38,30
39,30
40,30
41,30
42,30
43,30
44,36
45,30
46,30
47,30
48,30
49,30
50,30
51,30
52,30
53,30
54,30
55,30
56,30
57,30
58,30
59,30
60,30
61,30
62,36
63,30
64,30
65,30
66,30
67,30
68,30
69,30
70,30
71,30
72,30
73,30
74,36
75,30
76,30
77,30
78,30
79,30
80,30
81,30
82,30
83,30
84,30
85,30
86,30
87,30
88,36
89,36
90,30
91,30
92,30
93,30
94,30
95,30
96,30
97,30
98,30
99,36
100,30
110,30
120,30
130,30
140,30
150,30
160,30
170,30
180,30
190,30
200,30
210,30
220,30
230,30
240,30
250,30
260,30
270,30
280,30
290,30
300,30
310,30
320,30
330,30
340,30
350,30
360,30
370,30
380,30
390,30
400,30
410,30
420,30
430,30
440,30
450,30
460,30
470,30
480,30
490,30
500,30
510,30
520,30
530,30
540,30
550,30
560,30
570,30
580,30
590,36
600,30
610,30
620,30
630,30
640,30
650,30
660,30
670,30
680,30
690,30
700,30
710,30
720,30
730,30
740,30
750,30
760,30
770,30
780,30
790,30
800,30
810,30
820,36
830,30
840,30
850,30
860,30
870,30
880,30
890,30
900,36
910,30
920,30
930,30
940,30
950,30
960,30
970,30
980,30
990,36
1000,30
