seq_len,cutoff
1,6
2,12
3,18
4,24
5,30
6,36
7,36
8,42
9,42
10,42
11,42
12,48
13,48
14,48
15,48
16,48
17,54
18,54
19,54
20,54
21,54
22,54
23,54
24,54
25,54
26,54
27,54
28,54
29,54
30,54
31,54
32,54
33,54
34,60
35,60
36,60
37,54
38,54
39,60
40,60
41,54
42,60
43,54
44,54
45,54
46,60
47,60
48,54
49,54
50,54
51,60
52,54
53,60
54,60
55,54
56,54
57,54
58,60
59,60
60,60
61,60
62,60
63,60
64,54
65,54
66,54
67,60
68,60
69,54
70,54
71,60
72,54
73,60
74,54
75,54
76,60
77,60
78,60
79,54
80,60
81,54
82,60
83,54
84,54
85,54
86,54
87,60
88,54
89,60
90,54
91,54
92,54
93,60
94,60
95,60
96,54
97,60
98,54
99,54
100,60
110,54
120,60
130,54
140,60
150,54
160,54
170,54
180,54
190,54
200,54
210,54
220,60
230,54
240,54
250,54
260,60
270,60
280,60
290,54
300,54
310,60
320,60
330,54
340,54
350,54
360,54
370,60
380,60
390,60
400,54
410,54
420,60
430,60
440,60
450,54
460,60
470,54
480,60
490,54
500,60
510,60
520,60
530,54
540,60
550,60
560,60
570,54
580,54
590,54
600,54
610,54
620,54
630,54
640,60
650,60
660,60
670,60
680,54
690,60
700,54
710,54
720,60
730,54
740,60
750,54
760,54
770,60
780,60
790,60
800,54
810,60
820,54
830,54
840,54
850,60
860,54
870,60
880,54
890,54
900,54
910,60
920,60
930,60
940,54
950,54
960,60
970,60
980,54
990,60
1000,60
