seq_len,cutoff
1,6
2,12
3,18
4,24
5,30
6,36
7,42
8,48
9,48
10,48
11,54
12,54
13,54
14,60
15,60
16,60
17,60
18,66
19,66
20,66
21,66
22,66
23,66
24,66
25,72
26,72
27,72
28,72
29,72
30,72
31,72
32,72
33,78
34,78
35,78
36,78
37,78
38,78
39,78
40,78
41,84
42,84
43,84
44,84
45,84
46,84
47,84
48,84
49,84
50,90
51,84
52,84
53,84
54,84
55,84
56,90
57,84
58,90
59,84
60,84
61,84
62,90
63,90
64,84
65,90
66,90
67,84
68,90
69,90
70,90
71,90
72,90
73,90
74,90
75,96
76,90
77,90
78,90
79,90
80,90
81,96
82,96
83,90
84,90
85,96
86,96
87,90
88,90
89,96
90,90
91,90
92,96
93,90
94,96
95,96
96,96
97,96
98,90
99,90
100,96
110,96
120,90
130,96
140,96
150,96
160,96
170,96
180,96
190,96
200,90
210,102
220,96
230,96
240,96
250,96
260,96
270,96
280,96
290,102
300,96
310,96
320,90
330,96
340,96
350,96
360,96
370,96
380,96
390,96
400,96
410,96
420,96
430,96
440,96
450,96
460,96
470,96
480,96
490,102
500,96
510,102
520,96
530,96
540,102
550,96
560,96
570,96
580,96
590,96
600,96
610,102
620,96
630,96
640,96
650,96
660,96
670,96
680,102
690,96
700,96
710,96
720,96
730,102
740,96
750,96
760,96
770,96
780,96
790,102
800,96
810,96
820,96
830,96
840,96
850,96
860,96
870,96
880,96
890,96
900,96
910,96
920,96
930,96
940,96
950,96
960,96
970,96
980,96
990,102
1000,96
