seq_len,cutoff
1,6
2,12
3,18
4,24
5,30
6,36
7,42
8,42
9,48
10,54
11,54
12,54
13,54
14,54
15,60
16,60
17,60
18,60
19,60
20,60
21,66
22,66
23,66
24,66
25,66
26,66
27,66
28,66
29,72
30,66
31,72
32,72
33,72
34,66
35,72
36,72
37,72
38,72
39,72
40,72
41,72
42,72
43,72
44,72
45,72
46,72
47,72
48,72
49,72
50,72
51,72
52,78
53,72
54,78
55,72
56,72
57,78
58,72
59,72
60,72
61,72
62,72
63,78
64,72
65,78
66,72
67,78
68,78
69,78
70,72
71,72
72,72
73,72
74,72
75,78
76,72
77,78
78,78
79,72
80,72
81,78
82,72
83,78
84,78
85,72
86,78
87,78
88,78
89,72
90,72
91,72
92,72
93,72
94,78
95,72
96,72
97,72
98,78
99,78
100,72
110,78
120,72
130,78
140,78
150,78
160,72
170,72
180,72
190,78
200,78
210,72
220,72
230,78
240,72
250,78
260,78
270,72
280,78
290,72
300,78
310,72
320,72
330,72
340,72
350,72
360,78
370,72
380,72
390,72
400,72
410,78
420,72
430,72
440,72
450,72
460,72
470,78
480,78
490,72
500,72
510,78
520,78
530,72
540,72
550,78
560,78
570,78
580,72
590,72
600,72
610,78
620,78
630,72
640,78
650,72
660,72
670,72
680,72
690,78
700,72
710,78
720,78
730,78
740,78
750,72
760,78
770,72
780,72
790,72
800,78
810,72
820,78
830,72
840,72
850,78
860,72
870,84
880,72
890,72
900,72
910,72
920,78
930,72
940,72
950,78
960,78
970,78
980,78
990,72
1000,78
