.	0	2	10	13	14	16	18	19	22	23	25	26	27	28	30	31	32	33	34	38	
.	0	172299	217614	288617	976189	1029689	1302589	1303215	1307250	1343236	1504132	1580825	2522157	2673875	3102380	5350069	7032910	22195482	29077570	32000000	
.	1	2	10	13	14	16	18	19	22	23	25	26	27	28	30	31	32	33	34	38	
.	1	154123	192910	253618	868815	927375	1181564	1183389	1190948	1222906	1359738	1431921	2369941	2520917	2889686	4884285	6440595	20833907	29062046	32000000	
.	2	2	10	13	14	16	18	19	22	23	25	26	27	28	30	31	32	33	34	38	
.	2	158182	200424	260387	850099	905569	1157098	1157701	1167396	1198495	1328138	1400733	2258886	2412233	2772856	4714901	6215314	20502206	29055110	32000000	
.	3	2	10	13	14	15	16	19	22	25	26	27	28	29	30	31	32	33	34	35	37	38	
.	3	162585	201163	257676	851552	1094899	1110946	1149908	1157929	1267957	1303066	1983846	2121736	2122004	2284324	2503345	4048393	18061192	21665457	22955142	28984677	32000000	
.	4	2	10	13	14	15	16	19	22	25	26	27	28	29	30	31	32	33	34	35	37	38	
.	4	168154	205387	261265	850550	1091369	1107487	1141377	1149797	1256631	1292015	1950964	2089624	2091178	2253405	2485240	4153074	18182142	21792759	23071436	29120681	32000000	
.	5	2	6	8	10	11	13	14	15	16	17	18	19	21	22	23	24	25	26	27	28	29	30	31	32	33	34	35	36	37	38	40	
.	5	167748	167764	178445	208844	218688	279406	881237	912518	1111530	1182094	1188748	1197588	1199526	1200270	1213844	1213948	1260027	1368531	1840498	2037915	2141340	2265370	2406024	2934657	4209857	4374916	7059499	7535897	21857207	29675325	32000000	
.	6	2	5	6	8	9	10	11	12	13	14	15	16	17	18	19	20	21	22	23	24	25	26	27	28	29	30	31	32	33	34	35	36	37	38	40	
.	6	172518	172523	172541	182339	182340	205221	212368	212372	266898	870276	896505	1098100	1132276	1137954	1144184	1144191	1146235	1147107	1160008	1160100	1196240	1300775	1781534	1877423	1986965	2093152	2214873	2519462	3510490	3677081	6161089	6765817	21861162	29615253	32000000	
.	7	2	5	6	7	8	10	11	12	13	14	15	16	17	18	19	20	21	22	23	24	25	26	27	28	29	30	31	32	33	34	35	36	37	38	40	
.	7	179401	179411	179422	179424	189871	213636	221036	221042	275317	895916	923101	1125711	1154019	1160193	1166411	1166421	1168914	1170135	1184050	1184247	1219866	1325981	1804443	1880175	1996682	2099893	2217337	2486452	3417025	3583341	5278600	5791516	21861823	29580969	32000000	
.	8	2	5	6	7	8	10	11	12	13	14	15	16	17	18	19	20	21	22	23	24	25	26	27	28	29	30	31	32	33	34	35	36	37	38	39	40	
.	8	184159	184173	184192	184205	194792	216398	222587	222601	274822	866071	893115	1090541	1115559	1122784	1129126	1129166	1131853	1133332	1147847	1148197	1183597	1270391	1800354	1866602	1985159	2085821	2193263	2442106	3239030	3495724	4013799	4244768	15769817	23906821	29562793	32000000	
.	9	2	5	6	7	8	9	10	11	12	13	14	15	16	17	18	19	20	21	22	23	24	25	26	27	28	29	30	31	32	33	34	35	36	37	38	39	40	
.	9	187481	187506	187565	187608	198391	198406	220517	227029	227056	283335	891652	920352	1121959	1146043	1152905	1159085	1159137	1161848	1163809	1178549	1179124	1214377	1301728	1822851	1879774	2004283	2101505	2209496	2456335	3291499	3545559	4059855	4294534	15742666	23899865	29567370	32000000	
.	10	2	5	6	7	8	9	10	11	12	13	14	15	16	17	18	19	20	21	22	23	24	25	26	27	28	29	30	31	32	33	34	35	36	37	38	39	40	
.	10	193783	193825	193883	193951	204733	204785	226280	232626	232677	286186	892384	921219	1115920	1139728	1146837	1153246	1153310	1156169	1158655	1173490	1174425	1209901	1296457	1839760	1888656	2012565	2108884	2214543	2460219	3280504	3530318	4047895	4280885	15713851	23919337	29566444	32000000	
.	11	2	5	6	7	8	9	10	11	12	13	14	15	16	17	18	19	20	21	22	23	24	25	26	27	28	29	30	31	32	33	34	35	36	37	38	39	40	
.	11	200696	200728	200822	200914	211449	211572	232779	239116	239189	292981	927006	956936	1152502	1175883	1182995	1189498	1189598	1192494	1195384	1210695	1212149	1247777	1334451	1883539	1927060	2054001	2149801	2254879	2500177	3328092	3578144	4096859	4330717	15732038	23919995	29545039	32000000	
.	12	2	5	6	7	8	9	10	11	12	13	14	15	16	17	18	19	20	21	22	23	24	25	26	27	28	29	30	31	32	33	34	35	36	37	38	39	40	
.	12	204251	204291	204428	204557	215312	215594	237213	243818	243909	295795	901447	931213	1124031	1148244	1155511	1162240	1162383	1165430	1169207	1184893	1187005	1223663	1309312	1888986	1933573	2058790	2154582	2258347	2507553	3320692	3571886	4097549	4331304	15750152	23976433	29556571	32000000	
.	13	2	5	6	7	8	9	10	11	12	13	14	15	16	17	18	19	20	21	22	23	24	25	26	27	28	29	30	31	32	33	34	35	36	37	38	39	40	41	
.	13	208538	208578	208745	208879	219924	220371	242703	249396	249533	303072	918465	940589	1141256	1168076	1175895	1183038	1183194	1186526	1191285	1200588	1210801	1249057	1333855	1926188	1973843	2098472	2146763	2294978	2521915	3332763	3594933	3801452	4281025	15167280	23494063	23978672	27833072	32000000	
.	14	2	5	6	7	8	9	10	11	12	13	14	15	16	17	18	19	20	21	22	23	24	25	26	27	28	29	30	31	32	33	34	35	36	37	38	39	40	41	
.	14	212504	212541	212716	212906	224255	225008	245970	252256	252398	305609	921743	944476	1146390	1171733	1179524	1186766	1186957	1190374	1196474	1205912	1217356	1256759	1340695	1930655	1981970	2103595	2153233	2302328	2513744	3333113	3598470	3808608	4290099	15166761	23497822	23982295	27869576	32000000	
.	15	2	5	6	7	8	9	10	11	12	13	14	15	16	17	18	19	20	21	22	23	24	25	26	27	28	29	30	31	32	33	34	35	36	37	38	39	40	41	
.	15	215701	215745	216000	216196	227781	228832	249830	256080	256241	310385	925867	949236	1152333	1176735	1184466	1191544	1191763	1195410	1202988	1212871	1226173	1266762	1348537	1938328	1994725	2112385	2163560	2312666	2529975	3348844	3614395	3826592	4311438	15192813	23516487	24001356	27897475	32000000	
.	16	2	5	6	7	8	9	10	11	12	13	14	15	16	17	18	19	20	21	22	23	24	25	26	27	28	29	30	31	32	33	34	35	36	37	38	39	40	41	
.	16	219601	219647	219952	220197	231774	233284	253204	259048	259219	314334	965228	989427	1196400	1219433	1227009	1234282	1234536	1238515	1248367	1258635	1274167	1317212	1396409	2012420	2072570	2186048	2238919	2389162	2618994	3435894	3701005	3916801	4404120	15243137	23543763	24026531	27918379	32000000	
.	17	2	5	6	7	8	9	10	11	12	13	14	15	16	17	18	19	20	21	22	23	24	25	26	27	28	29	30	31	32	33	34	35	36	37	38	39	40	41	
.	17	223224	223274	223630	223997	236483	238598	259898	266209	266436	319469	975561	1000526	1208200	1231686	1239729	1247488	1247808	1252124	1264082	1274730	1292570	1338347	1415121	2047627	2112829	2223072	2278575	2428826	2640958	3471895	3738280	3958458	4445872	15243469	23580849	24062616	27956946	32000000	
.	18	2	5	6	7	8	9	10	11	12	13	14	15	16	17	18	19	20	21	22	23	24	25	26	27	28	29	30	31	32	33	34	35	36	37	38	39	40	41	
.	18	229973	230040	230439	230983	243746	246397	268479	275117	275423	329043	950889	977325	1188130	1192665	1221981	1230736	1231106	1235817	1250114	1261438	1281710	1332283	1405375	2040836	2107551	2217008	2276522	2429086	2643583	3430789	3742414	3968308	4426841	15262450	23499558	24057203	27972918	32000000	
.	19	2	5	6	7	8	9	10	11	12	13	14	15	16	17	18	19	20	21	22	23	24	25	26	27	28	29	30	31	32	33	34	35	36	37	38	39	40	41	
.	19	236825	236891	237395	238074	250998	254447	274475	280065	280408	332552	955009	981858	1194816	1200045	1226806	1234811	1235250	1240382	1256464	1268207	1290078	1344408	1413296	2028380	2095693	2203391	2265950	2416666	2629171	3405099	3720023	3949324	4406058	15270107	23500482	24068412	28007992	32000000	
.	20	2	5	6	7	8	9	10	11	12	13	14	15	16	17	18	19	20	21	22	23	24	25	26	27	28	29	30	31	32	33	34	35	36	37	38	39	40	41	
.	20	242514	242581	243178	243894	257062	261320	278125	282363	282765	335126	949043	976647	1192840	1198721	1222114	1230002	1230574	1236279	1254476	1266968	1291168	1350584	1414696	2021944	2085992	2194421	2260818	2413089	2624018	3398716	3712240	3947930	4406976	15286383	23545952	24123093	28053347	32000000	
.	21	2	5	6	7	8	9	10	11	12	13	14	15	16	17	18	19	20	21	22	23	24	25	26	27	28	29	30	31	32	33	34	35	36	37	38	39	40	41	
.	21	247579	247642	248360	249239	262723	267928	283882	287783	288252	341096	998057	1026835	1247936	1254122	1274047	1282030	1282659	1288976	1309405	1322281	1348884	1413782	1471178	2077858	2139859	2250794	2320595	2472748	2680095	3462631	3776662	4018624	4481888	15310822	23558644	24146292	28097017	32000000	
.	22	2	5	6	7	8	9	10	11	12	13	14	15	16	17	18	19	20	21	22	23	24	25	26	27	28	29	30	31	32	33	34	35	36	37	38	39	40	41	
.	22	253248	253347	254208	255296	269632	275943	291059	294599	295187	348347	967381	997293	1219986	1226479	1244436	1252827	1253620	1260531	1282530	1295712	1324990	1397199	1448437	2069579	2129834	2241330	2316222	2468753	2672893	3462905	3775008	4024606	4489159	15342947	23586870	24183575	28150489	32000000	
.	23	2	5	6	7	8	9	10	11	12	13	14	15	16	17	18	19	20	21	22	23	24	25	26	27	28	29	30	31	32	33	34	35	36	37	38	39	40	41	
.	23	259044	259129	260213	261596	276954	284530	300049	303964	304640	362349	984183	1015190	1237511	1244335	1261954	1270661	1271619	1279401	1303004	1316830	1348936	1428460	1471893	2094079	2152777	2266420	2345722	2499097	2712238	3495356	3807636	4063745	4529046	15399862	23653128	24221058	28114795	32000000	
.	24	2	5	6	7	8	9	10	11	12	13	14	15	16	17	18	19	20	21	22	23	24	25	26	27	28	29	30	31	32	33	34	35	36	37	38	39	40	41	
.	24	264516	264624	265876	267411	282506	291029	303286	305978	306800	360640	980652	1012934	1232153	1239419	1254841	1263453	1264573	1273074	1297593	1311607	1346018	1433719	1469673	2083700	2139538	2253739	2337450	2490653	2694659	3476635	3791588	4055036	4522393	15412429	23691700	24261378	28187840	32000000	
.	25	2	5	6	7	8	9	10	11	12	13	14	15	16	17	18	19	20	21	22	23	24	25	26	27	28	29	30	31	32	33	34	35	36	37	38	39	40	41	
.	25	271470	271600	273051	275061	291738	302112	317271	320754	321782	374709	1008377	1042410	1262764	1270360	1285550	1295063	1296488	1306095	1331376	1345922	1382935	1478452	1507633	2123954	2177578	2293922	2383083	2537595	2739066	3526619	3843082	4116857	4588716	15471334	23752367	24324213	28274946	32000000	
.	26	2	5	6	7	8	9	10	11	12	13	14	15	16	17	18	19	20	21	22	23	24	25	26	27	28	29	30	31	32	33	34	35	36	37	38	39	40	41	
.	26	277852	277986	279710	281966	298468	309616	321601	324124	325272	380295	1000935	1036179	1259593	1267584	1281414	1290739	1292375	1302686	1328795	1343845	1382012	1483710	1507190	2134848	2186495	2304610	2398232	2553782	2754562	3545971	3863803	4147342	4620832	15511399	23798785	24377952	28356985	32000000	
.	27	2	5	6	7	8	9	10	11	12	13	14	15	16	17	18	19	20	21	22	23	24	25	26	27	28	29	30	31	32	33	34	35	36	37	38	39	40	41	
.	27	284362	284519	286519	289164	306819	319666	332409	334749	336062	391245	1017981	1053453	1278004	1286337	1299263	1309055	1311078	1322341	1349208	1364601	1406048	1510520	1532028	2154727	2206328	2325868	2423551	2581693	2786545	3581884	3902129	4194434	4669804	15570750	23865638	24444998	28454350	32000000	
.	28	2	5	6	7	8	9	10	11	12	13	14	15	16	17	18	19	20	21	22	23	24	25	26	27	28	29	30	31	32	33	34	35	36	37	38	39	40	41	
.	28	290868	291022	293302	296337	313665	327410	337483	339153	340643	394452	1014011	1050578	1275678	1284302	1295701	1305402	1307729	1319940	1347058	1362639	1405605	1510840	1532727	2153925	2206667	2327401	2428992	2589333	2792561	3593983	3914510	4217060	4694579	15606331	23948452	24531572	28535297	32000000	
.	29	2	5	6	7	8	9	10	11	12	13	14	15	16	17	18	19	20	21	22	23	24	25	26	27	28	29	30	31	32	33	34	35	36	37	38	39	40	41	
.	29	300321	300512	303017	306413	323650	338377	347702	348809	350513	404097	1024357	1062026	1290914	1298932	1309300	1319233	1321878	1333531	1361210	1378690	1423009	1528407	1551055	2171872	2226355	2349396	2453838	2615629	2815768	3621990	3945081	4261223	4743900	15664360	23994405	24576570	28617027	32000000	
.	30	2	5	6	7	8	9	10	11	12	13	14	15	16	17	18	19	20	21	22	23	24	25	26	27	28	29	30	31	32	33	34	35	36	37	38	39	40	41	
.	30	310857	311089	313890	317646	334674	350081	357709	358502	360418	414826	1054645	1092256	1317583	1324917	1334643	1344990	1348031	1360468	1389335	1407004	1452755	1557781	1582302	2198538	2254791	2377719	2485485	2650333	2853502	3668412	3992657	4321122	4805834	15709045	24077431	24659025	28697922	32000000	
.	31	2	5	6	7	8	9	10	11	12	13	14	15	16	17	18	19	20	21	22	23	24	25	26	27	28	29	30	31	32	33	34	35	36	37	38	39	40	41	
.	31	318388	318627	321813	326088	343176	359856	366233	366810	368906	420478	1060591	1099440	1331009	1337239	1346884	1357775	1361254	1374430	1403922	1422051	1468844	1573132	1599310	2226922	2284227	2411267	2520442	2688804	2885251	3712454	4038498	4381510	4871402	15761083	24117537	24697931	28770163	32000000	
.	32	2	5	6	7	8	9	10	11	12	13	14	15	16	17	18	19	20	21	22	23	24	25	26	27	28	29	30	31	32	33	34	35	36	37	38	39	40	41	
.	32	327663	327940	331392	336104	352824	370101	374740	375375	377714	432479	1056134	1095731	1326250	1331334	1341115	1352176	1356268	1370533	1400753	1419643	1466426	1572307	1600131	2221164	2281515	2409239	2521608	2693089	2888729	3721472	4051256	4408502	4902044	15825650	24160518	24741066	28847302	32000000	
.	33	2	5	6	7	8	9	10	11	12	13	14	15	16	17	18	19	20	21	22	23	24	25	26	27	28	29	30	31	32	33	34	35	36	37	38	39	40	41	
.	33	340366	340665	344496	349828	366623	385358	389112	389779	392419	447944	1089765	1129303	1359880	1364165	1374438	1385956	1390580	1405376	1436401	1456166	1503830	1609823	1640111	2259051	2321383	2451227	2565227	2740847	2943806	3781856	4114915	4488519	4987540	15907528	24279360	24856018	28927521	32000000	
.	34	2	5	6	7	8	9	10	11	12	13	14	15	16	17	18	19	20	21	22	23	24	25	26	27	28	29	30	31	32	33	34	35	36	37	38	39	40	41	
.	34	350998	351312	355452	360733	375688	392942	394849	395607	398411	453702	1092279	1132729	1359899	1363139	1372807	1383604	1388928	1403461	1435214	1455230	1501630	1605764	1637743	2261109	2325040	2454124	2565330	2739040	2940247	3781918	4107835	4490838	4976774	15889391	24235730	24838604	28878533	32000000	
.	35	2	5	6	7	8	9	10	11	12	13	14	15	16	17	18	19	20	21	22	23	24	25	26	27	28	29	30	31	32	33	34	35	36	37	38	39	40	41	
.	35	363819	364133	368641	374467	390710	410963	412527	413400	416362	470864	1116157	1157050	1384806	1387799	1398108	1409357	1414990	1430018	1462358	1482931	1529916	1632313	1666492	2285981	2352285	2484153	2595872	2773042	2974369	3824457	4154345	4553693	5043915	15952085	24311542	24896395	28892821	32000000	
.	36	2	5	6	7	8	9	10	11	12	13	14	15	16	17	18	19	20	21	22	23	24	25	26	27	28	29	30	31	32	33	34	35	36	37	38	39	40	41	
.	36	376773	377169	382041	388365	403193	420798	421494	422449	425704	480280	1130215	1172715	1405076	1407730	1418339	1429829	1436087	1452107	1485523	1507356	1554189	1657870	1694234	2317046	2386490	2521312	2633797	2815254	3019056	3881577	4218117	4638554	5136295	16043078	24369402	24946677	28928679	32000000	
.	37	2	5	6	7	8	9	10	11	12	13	14	15	16	17	18	19	20	21	22	23	24	25	26	27	28	29	30	31	32	33	34	35	36	37	38	39	40	41	
.	37	389739	390151	395328	402066	417163	435993	436470	437530	440941	495180	1155487	1198622	1429136	1431896	1443161	1454845	1461892	1478084	1512758	1535609	1582709	1684927	1723776	2352810	2425308	2562790	2675451	2859603	3065931	3939556	4283619	4725290	5230806	16130534	24435577	25018803	28989128	32000000	
.	38	2	5	6	7	8	9	10	11	12	13	14	15	16	17	18	19	20	21	22	23	24	25	26	27	28	29	30	31	32	33	34	35	36	37	38	39	40	41	
.	38	403625	404076	409230	416233	430812	448915	449261	450485	454117	510584	1159987	1207803	1435574	1438420	1449864	1461865	1469641	1483750	1518823	1545860	1594251	1695562	1738213	2379913	2456072	2596654	2708817	2896767	3111621	3992629	4342435	4807189	5318634	16232379	24532351	25144832	29059524	32000000	
.	39	2	5	6	7	8	9	10	11	12	13	14	15	16	17	18	19	20	21	22	23	24	25	26	27	28	29	30	31	32	33	34	35	36	37	38	39	40	41	
.	39	420234	420712	426051	433183	446947	463541	463828	464975	468513	521704	1165316	1213607	1443342	1446287	1458446	1470434	1478556	1492851	1528535	1557202	1605283	1705713	1750010	2381818	2460830	2604637	2715406	2907690	3122480	4013798	4372386	4862746	5383670	16323738	24603386	25224260	29139580	32000000	
.	40	2	5	6	7	8	9	10	11	12	13	14	15	16	17	18	19	20	21	22	23	24	25	26	27	28	29	30	31	32	33	34	35	36	37	38	39	40	41	
.	40	439962	440444	445721	452633	464905	479262	479541	480836	484354	537731	1211299	1260115	1489771	1492682	1504465	1515921	1524672	1538757	1575089	1604612	1650959	1749629	1795401	2428090	2510446	2655966	2761206	2952815	3175034	4074068	4434668	4948833	5466337	16371123	24644611	25295507	29148258	32000000	
.	41	2	5	6	7	8	9	10	11	12	13	14	15	16	17	18	19	20	21	22	23	24	25	26	27	28	29	30	31	32	33	34	35	36	37	38	39	40	41	
.	41	461421	461967	467425	474680	487496	503191	503475	504835	508446	564334	1229391	1281348	1508020	1511098	1523451	1535344	1544594	1558932	1596462	1627365	1673473	1770654	1819107	2469598	2555205	2703335	2807529	3002816	3231747	4144313	4513237	5053091	5583403	16487524	24754785	25386211	29154153	32000000	
.	42	2	5	6	7	8	9	10	11	12	13	14	15	16	17	18	19	20	21	22	23	24	25	26	27	28	29	30	31	32	33	34	35	36	37	38	39	40	41	
.	42	485705	486212	491404	498483	510037	522836	523139	524579	528200	582443	1243257	1300737	1519609	1522935	1535978	1547554	1557510	1571933	1609937	1642360	1688698	1785789	1837546	2477688	2565889	2717799	2822594	3022148	3257199	4173412	4553225	5126147	5664860	16592944	24861991	25487077	29190178	32000000	
.	43	2	5	6	7	8	9	10	11	12	13	14	15	16	17	18	19	20	21	22	23	24	25	26	27	28	29	30	31	32	33	34	35	36	37	38	39	40	41	
.	43	513221	513812	519063	526210	537136	549317	549613	551048	554689	607513	1255481	1313774	1532656	1536217	1549799	1561173	1571700	1586474	1624903	1658908	1703956	1799034	1853446	2488710	2578916	2734788	2839366	3043214	3283874	4212279	4603469	5207019	5758407	16710814	24981679	25611175	29249741	32000000	
.	44	2	5	6	7	8	9	10	11	12	13	14	15	16	17	18	19	20	21	22	23	24	25	26	27	28	29	30	31	32	33	34	35	36	37	38	39	40	41	
.	44	547618	548221	553010	559999	570542	581841	582152	583624	586953	640184	1298734	1360795	1569222	1572929	1585563	1596979	1611694	1623124	1661734	1698754	1743954	1840375	1898479	2536195	2629692	2785633	2890472	3098165	3346584	4284690	4686932	5324996	5887943	16837094	25098661	25720534	29329008	32000000	
.	45	2	5	6	7	8	9	10	11	12	13	14	15	16	17	18	19	20	21	22	23	24	25	26	27	28	29	30	31	32	33	34	35	36	37	38	39	40	41	
.	45	587354	587928	592144	598624	608114	617942	618262	619520	622541	670558	1325295	1392363	1600381	1604108	1617120	1628229	1643677	1654905	1693685	1732105	1776535	1872261	1932752	2561494	2655531	2816369	2922307	3134643	3390124	4338608	4755401	5430183	6006181	16962316	25197644	25824089	29415806	32000000	
.	46	2	5	6	7	8	9	10	11	12	13	14	15	16	17	18	19	20	21	22	23	24	25	26	27	28	29	30	31	32	33	34	35	36	37	38	39	40	41	
.	46	636919	637343	640753	646223	654051	662030	662295	663394	666005	709889	1349296	1421460	1622530	1626475	1639592	1650453	1666555	1677634	1716349	1756512	1800281	1895248	1958404	2585228	2681402	2845164	2952440	3170983	3435901	4398110	4831951	5545459	6136550	17105307	25322217	25948857	29500195	32000000	
.	47	2	5	6	7	8	9	10	11	12	13	14	15	16	17	18	19	20	21	22	23	24	25	26	27	28	29	30	31	32	33	34	35	36	37	38	39	40	41	
.	47	704107	704271	706461	710406	716963	725058	725193	725837	727534	766965	1397694	1474775	1672265	1676409	1690219	1700818	1717715	1728287	1766636	1808559	1852434	1946145	2011733	2625409	2722792	2891094	2999543	3224059	3496758	4471266	4921317	5674336	6279366	17262462	25459519	26090030	29589456	32000000	
.	48	2	6	7	8	9	10	11	12	13	14	15	16	17	18	19	20	21	22	23	24	25	26	27	28	29	30	31	32	33	34	35	36	37	38	39	40	41	
.	48	796532	796717	797301	798813	802088	802089	802112	802468	825990	1435142	1514405	1708391	1711732	1722885	1731526	1747526	1756385	1794808	1828035	1871339	1962544	2026462	2616993	2717434	2879414	2988335	3208351	3469757	4440216	4883315	5706326	6314399	17318294	25410610	26167916	29579345	32000000	
.	49	2	13	14	15	16	17	18	19	20	21	22	23	24	25	26	27	28	29	30	31	32	33	34	35	36	37	38	39	40	41	
.	49	959227	959307	1610980	1714549	1955242	1959211	1972183	1981902	1996948	2006461	2045102	2079362	2121360	2225857	2289339	2991109	3094151	3288580	3393879	3639381	4016756	5139632	5647698	6573698	7252605	18022398	26074841	26784374	29659083	32000000	
A	0	2	10	13	14	16	18	19	22	23	25	26	27	28	30	31	32	33	34	38	
A	0	23952	36665	52129	261814	275472	362110	362250	363291	373153	418875	440304	707858	751263	874580	1550681	1995268	6482272	8430297	9449692	
A	1	2	10	13	14	16	18	19	22	23	25	26	27	28	30	31	32	33	34	38	
A	1	23041	33967	53006	241848	257270	335747	336156	338111	347512	382762	404322	653108	695672	801110	1413062	1911654	5672938	8003174	9053104	
A	2	2	10	13	14	16	18	19	22	23	25	26	27	28	30	31	32	33	34	38	
A	2	26949	38661	53250	243344	256790	335552	335669	338145	346721	380805	401678	650571	692513	791580	1368846	1796363	6058157	8590066	9552516	
A	3	2	10	13	14	15	16	19	22	25	26	27	28	29	30	31	32	33	34	35	37	38	
A	3	25709	35833	51240	214222	282145	286597	295481	297709	325193	335299	495322	531880	531971	576519	637868	1061176	4412001	5294671	5624653	7339422	8271437	
A	4	2	10	13	14	15	16	19	22	25	26	27	28	29	30	31	32	33	34	35	37	38	
A	4	28807	38332	54533	269368	350769	355149	362521	364787	396487	406449	631618	672950	673512	722677	802894	1354812	6379742	7677922	7994580	9661966	10517995	
A	5	2	8	10	11	13	14	15	16	17	18	19	21	22	23	25	26	27	28	29	30	31	32	33	34	35	36	37	38	40	
A	5	31370	33523	41756	44770	62499	280480	290003	361894	377795	379808	382724	383088	383247	386459	400267	436555	602756	650328	686451	726420	768313	912527	1360363	1418646	2217275	2369985	7479792	10326094	11042046	
A	6	2	6	8	10	11	13	14	15	16	17	18	19	21	22	23	24	25	26	27	28	29	30	31	32	33	34	35	36	37	38	40	
A	6	31293	31297	33155	39400	41710	57769	254685	262511	330879	339388	340922	342933	343273	343489	346462	346489	356342	388218	538715	563621	599298	629506	664394	750951	1060191	1114496	1796306	1983272	6607684	9184571	9994102	
A	7	2	5	6	8	10	11	12	13	14	15	16	17	18	19	20	21	22	23	24	25	26	27	28	29	30	31	32	33	34	35	36	37	38	40	
A	7	34519	34522	34525	36604	43153	45658	45659	61124	274375	282505	352495	359013	360721	362759	362761	363242	363622	366920	366982	376596	409736	566549	586275	624954	654414	689703	765860	1076845	1132274	1586190	1742398	6883512	9584369	10399015	
A	8	2	5	6	7	8	10	11	13	14	15	16	17	18	19	20	21	22	23	24	25	26	27	28	29	30	31	32	33	34	35	36	37	38	39	40	
A	8	30388	30393	30396	30399	32399	38053	39931	54181	198572	205829	261417	267307	269258	271321	271333	271834	272235	275641	275729	284795	306229	423246	438249	468850	496376	522938	588714	776657	839215	978491	1038334	3428436	5494256	6964103	7711641	
A	9	2	5	6	7	8	9	10	11	12	13	14	15	16	17	18	19	20	21	22	23	24	25	26	27	28	29	30	31	32	33	34	35	36	37	38	39	40	
A	9	35529	35535	35550	35568	37748	37753	44028	46179	46185	64115	253754	262144	326033	331552	333527	335502	335516	336097	336593	340161	340301	349671	373739	523852	537652	574330	601484	631667	704986	955291	1023324	1167198	1238478	4498828	6970767	8464050	9285248	
A	10	2	5	6	7	8	9	10	11	12	13	14	15	16	17	18	19	20	21	22	23	24	25	26	27	28	29	30	31	32	33	34	35	36	37	38	39	40	
A	10	35158	35169	35181	35203	37440	37456	43336	45339	45350	60039	236948	245723	305987	311401	313358	315462	315477	316085	316685	320352	320569	329889	353593	502002	514070	550690	577492	606948	673647	912078	978353	1122500	1193238	4334445	6735431	8224097	8980826	
A	11	2	5	6	7	8	9	10	11	12	13	14	15	16	17	18	19	20	21	22	23	24	25	26	27	28	29	30	31	32	33	34	35	36	37	38	39	40	
A	11	35151	35159	35184	35214	37369	37405	43178	45210	45225	59963	253976	262711	323071	328411	330355	332484	332512	333107	333837	337656	338016	347134	370833	523291	533995	571447	597871	627118	692927	937857	1004130	1148330	1218446	4375007	6784644	8262928	9023408	
A	12	2	5	6	7	8	9	10	11	12	13	14	15	16	17	18	19	20	21	22	23	24	25	26	27	28	29	30	31	32	33	34	35	36	37	38	39	40	
A	12	35530	35543	35573	35616	37849	37920	43800	45901	45919	60357	229779	237865	296507	302103	304168	306349	306378	307034	307947	311829	312333	321867	344462	493962	504387	540258	566952	594871	661759	887311	951810	1097443	1164298	4127768	6433160	7910073	8668657	
A	13	2	5	6	7	8	9	10	11	12	13	14	15	16	17	18	19	20	21	22	23	24	25	26	27	28	29	30	31	32	33	34	35	36	37	38	39	40	41	
A	13	35478	35487	35521	35555	37872	37981	44090	46390	46418	60840	231150	237985	297389	303411	305492	307875	307913	308615	309705	311573	314593	324609	346822	494468	505270	540522	553059	594345	651850	869805	937711	993909	1125515	3836985	6122638	6238554	7417392	8531339	
A	14	2	5	6	7	8	9	10	11	12	13	14	15	16	17	18	19	20	21	22	23	24	25	26	27	28	29	30	31	32	33	34	35	36	37	38	39	40	41	
A	14	40725	40737	40781	40828	43222	43418	49001	50955	50983	66166	259518	266898	333115	338855	341005	343411	343444	344167	345638	347565	350956	361238	385574	557681	571394	610176	623011	667623	724752	977556	1052499	1114288	1256385	4609893	7202090	7317021	8505028	9600979	
A	15	2	5	6	7	8	9	10	11	12	13	14	15	16	17	18	19	20	21	22	23	24	25	26	27	28	29	30	31	32	33	34	35	36	37	38	39	40	41	
A	15	42054	42068	42133	42193	44679	44974	50573	52645	52688	67911	261072	269083	335828	341350	343499	345791	345836	346685	348484	350530	354305	364862	388977	560339	575538	613371	626537	670823	727938	981302	1056157	1118742	1261787	4597008	7196336	7311376	8499893	9594782	
A	16	2	5	6	7	8	9	10	11	12	13	14	15	16	17	18	19	20	21	22	23	24	25	26	27	28	29	30	31	32	33	34	35	36	37	38	39	40	41	
A	16	42684	42690	42762	42826	45230	45611	50966	52830	52876	67031	268066	276125	342515	347681	349754	352117	352167	353032	355482	357610	361853	372879	396017	567891	583875	620108	633296	677474	733416	981813	1055991	1119028	1261713	4517160	7093997	7207486	8388960	9476728	
A	17	2	5	6	7	8	9	10	11	12	13	14	15	16	17	18	19	20	21	22	23	24	25	26	27	28	29	30	31	32	33	34	35	36	37	38	39	40	41	
A	17	44196	44204	44288	44374	46985	47552	53531	55647	55686	70049	270713	278942	345306	350414	352643	355210	355280	356205	359103	361314	366226	377980	400080	580625	597936	633348	647093	691458	747817	1001331	1075285	1139140	1281655	4539806	7112904	7225762	8401476	9474246	
A	18	2	5	6	7	8	9	10	11	12	13	14	15	16	17	18	19	20	21	22	23	24	25	26	27	28	29	30	31	32	33	34	35	36	37	38	39	40	41	
A	18	45500	45512	45605	45797	48620	49379	55651	58048	58109	72250	264060	272672	339269	340272	347462	350513	350592	351661	355230	357621	363379	376403	397594	577421	595124	630571	645396	690397	748155	985836	1074570	1140376	1277160	4525557	7056718	7192711	8368721	9432511	
A	19	2	5	6	7	8	9	10	11	12	13	14	15	16	17	18	19	20	21	22	23	24	25	26	27	28	29	30	31	32	33	34	35	36	37	38	39	40	41	
A	19	47861	47878	47997	48153	50991	51916	57459	59356	59420	75847	270628	279435	347911	348983	355314	357873	357972	359070	363038	365507	371534	385848	405713	587969	606075	640645	655929	700335	764841	999817	1089694	1155278	1291609	4539549	7116082	7252778	8486165	9541117	
A	20	2	5	6	7	8	9	10	11	12	13	14	15	16	17	18	19	20	21	22	23	24	25	26	27	28	29	30	31	32	33	34	35	36	37	38	39	40	41	
A	20	47844	47857	47989	48175	51046	52135	56669	57929	58003	72218	259711	268609	336996	338271	344065	346659	346781	348019	352369	355039	361604	376963	395452	569014	585974	620579	636736	681240	738077	970879	1060052	1127532	1264407	4495843	7002407	7142164	8321790	9360756	
A	21	2	5	6	7	8	9	10	11	12	13	14	15	16	17	18	19	20	21	22	23	24	25	26	27	28	29	30	31	32	33	34	35	36	37	38	39	40	41	
A	21	49575	49586	49750	49993	52891	54324	58534	59778	59876	74805	275336	284642	354249	355567	360496	363085	363205	364611	369311	372064	379170	396039	412469	585251	601690	636852	653786	698469	754605	987839	1077603	1146252	1284287	4472292	6948557	7091571	8288696	9323404	
A	22	2	5	6	7	8	9	10	11	12	13	14	15	16	17	18	19	20	21	22	23	24	25	26	27	28	29	30	31	32	33	34	35	36	37	38	39	40	41	
A	22	50787	50816	51024	51319	54570	56219	60400	61541	61658	76165	264660	274066	344183	345619	350194	352867	353029	354609	359655	362455	370301	389035	403763	581206	597282	633141	650956	695783	751557	987958	1077750	1147786	1286989	4491692	6984201	7130055	8326422	9349326	
A	23	2	5	6	7	8	9	10	11	12	13	14	15	16	17	18	19	20	21	22	23	24	25	26	27	28	29	30	31	32	33	34	35	36	37	38	39	40	41	
A	23	52935	52952	53203	53591	57091	59179	63676	65039	65172	85987	275857	285383	356288	357729	362056	364773	364964	366711	371990	374884	383385	404480	416763	602586	618321	654686	673778	718907	789428	1024839	1114423	1186378	1325632	4552743	7111730	7246122	8464151	9486468	
A	24	2	5	6	7	8	9	10	11	12	13	14	15	16	17	18	19	20	21	22	23	24	25	26	27	28	29	30	31	32	33	34	35	36	37	38	39	40	41	
A	24	55322	55341	55637	56034	59531	61825	65111	65973	66122	81923	272848	283003	352023	353699	357807	360528	360760	362639	368207	371279	380288	404067	414220	596739	611776	647856	667626	712332	774189	1010435	1100358	1173860	1313323	4587681	7159713	7295866	8526100	9527697	
A	25	2	5	6	7	8	9	10	11	12	13	14	15	16	17	18	19	20	21	22	23	24	25	26	27	28	29	30	31	32	33	34	35	36	37	38	39	40	41	
A	25	58933	58964	59297	59829	63619	66489	70998	72227	72422	87609	282516	293378	362871	364547	368443	371430	371708	373889	379473	382704	392439	417835	425928	606064	620432	657497	678366	723269	782812	1019024	1110318	1186385	1327616	4568625	7136459	7273465	8517082	9493633	
A	26	2	5	6	7	8	9	10	11	12	13	14	15	16	17	18	19	20	21	22	23	24	25	26	27	28	29	30	31	32	33	34	35	36	37	38	39	40	41	
A	26	59897	59926	60354	60924	64651	67696	70972	71777	71997	87148	275663	286358	356085	357974	361672	364700	365015	367309	373000	376325	386428	413557	419973	601962	615594	652918	674699	719702	774610	1010969	1102244	1180101	1320987	4564343	7069471	7207281	8397749	9344734	
A	27	2	5	6	7	8	9	10	11	12	13	14	15	16	17	18	19	20	21	22	23	24	25	26	27	28	29	30	31	32	33	34	35	36	37	38	39	40	41	
A	27	62346	62386	62832	63530	67553	71195	74918	75638	75903	92958	281903	292182	362952	364846	368347	371491	371911	374444	380219	383595	394669	422608	428356	608863	622332	659860	682657	728276	792814	1028131	1120740	1200775	1343675	4549363	7101976	7240561	8498242	9427471	
A	28	2	5	6	7	8	9	10	11	12	13	14	15	16	17	18	19	20	21	22	23	24	25	26	27	28	29	30	31	32	33	34	35	36	37	38	39	40	41	
A	28	62982	63013	63552	64367	68407	72322	75348	75848	76133	90879	277590	288321	358659	360739	363831	366915	367368	370088	375936	379472	390928	418942	424737	603314	617096	655004	678660	724678	781108	1018741	1111699	1194282	1337950	4572584	7096786	7236421	8428891	9338271	
A	29	2	5	6	7	8	9	10	11	12	13	14	15	16	17	18	19	20	21	22	23	24	25	26	27	28	29	30	31	32	33	34	35	36	37	38	39	40	41	
A	29	63528	63569	64182	65070	68976	73004	75793	76114	76468	90747	278952	289807	360788	362677	365569	368705	369196	371833	378032	382035	393865	421445	427251	604656	618741	657194	681141	727563	782971	1021611	1114981	1199931	1344804	4588177	7105789	7242497	8438028	9322244	
A	30	2	5	6	7	8	9	10	11	12	13	14	15	16	17	18	19	20	21	22	23	24	25	26	27	28	29	30	31	32	33	34	35	36	37	38	39	40	41	
A	30	65277	65342	65972	66845	70848	75101	77318	77540	77936	92502	285644	296425	366431	368217	370768	374101	374666	377470	383702	387703	399766	427696	433990	611501	626017	664627	689651	737150	793325	1034554	1128298	1216287	1361899	4583193	7105159	7243987	8442990	9311785	
A	31	2	5	6	7	8	9	10	11	12	13	14	15	16	17	18	19	20	21	22	23	24	25	26	27	28	29	30	31	32	33	34	35	36	37	38	39	40	41	
A	31	67931	67981	68733	69866	73784	78510	80373	80503	80918	95548	288578	299994	372398	373921	376553	380078	380799	383779	390310	394417	406827	434560	441302	621837	636860	677146	702906	751312	807217	1052665	1147982	1240370	1388531	4616279	7145788	7283836	8500059	9354220	
A	32	2	5	6	7	8	9	10	11	12	13	14	15	16	17	18	19	20	21	22	23	24	25	26	27	28	29	30	31	32	33	34	35	36	37	38	39	40	41	
A	32	72215	72281	73082	74327	78213	83118	84558	84682	85107	100811	290470	301986	374702	375983	378563	381917	382735	385929	392667	396935	409327	437547	444446	626190	642030	682018	708017	756881	815433	1061825	1158488	1253728	1403146	4654303	7243683	7380270	8654453	9484857	
A	33	2	5	6	7	8	9	10	11	12	13	14	15	16	17	18	19	20	21	22	23	24	25	26	27	28	29	30	31	32	33	34	35	36	37	38	39	40	41	
A	33	73949	74026	74851	76249	80184	85499	86648	86766	87241	102104	295883	307269	379472	380629	383457	387086	388002	391313	398068	402558	415175	443386	450963	631649	647730	688308	714974	765091	821823	1069045	1166650	1265917	1416856	4646417	7182313	7319371	8524775	9336971	
A	34	2	5	6	7	8	9	10	11	12	13	14	15	16	17	18	19	20	21	22	23	24	25	26	27	28	29	30	31	32	33	34	35	36	37	38	39	40	41	
A	34	79126	79196	80137	81513	85094	89943	90531	90702	91216	107477	302698	314368	385701	386660	389156	392332	393362	396699	403443	408104	420127	448019	455766	639864	656735	697244	723665	772870	836154	1085381	1181158	1281972	1428150	4673722	7269889	7407499	8656517	9501721	
A	35	2	5	6	7	8	9	10	11	12	13	14	15	16	17	18	19	20	21	22	23	24	25	26	27	28	29	30	31	32	33	34	35	36	37	38	39	40	41	
A	35	81030	81097	82151	83627	87334	93387	93901	94069	94594	109296	307464	319104	391184	392083	394790	398235	399328	402745	409987	414727	427123	454446	462700	642782	659566	700491	726763	777493	833396	1084848	1181403	1285941	1434196	4695303	7241029	7376027	8565242	9394466	
A	36	2	5	6	7	8	9	10	11	12	13	14	15	16	17	18	19	20	21	22	23	24	25	26	27	28	29	30	31	32	33	34	35	36	37	38	39	40	41	
A	36	83855	83955	85074	86680	90266	95203	95389	95577	96199	111804	307361	319921	392634	393378	396147	399535	400728	404483	411876	416892	429080	457068	465999	646134	663964	705914	732580	784290	842064	1094022	1192908	1303311	1453355	4674495	7193788	7329196	8521347	9342051	
A	37	2	5	6	7	8	9	10	11	12	13	14	15	16	17	18	19	20	21	22	23	24	25	26	27	28	29	30	31	32	33	34	35	36	37	38	39	40	41	
A	37	86214	86308	87516	89268	93018	98686	98825	99002	99649	114134	314706	327234	399731	400541	403475	407015	408402	412214	419977	425468	437746	465543	475035	656290	674922	717505	744503	796702	854035	1108905	1210712	1326126	1479373	4689349	7226802	7362850	8553752	9366013	
A	38	2	5	6	7	8	9	10	11	12	13	14	15	16	17	18	19	20	21	22	23	24	25	26	27	28	29	30	31	32	33	34	35	36	37	38	39	40	41	
A	38	89181	89286	90421	92211	95702	101004	101085	101309	101968	117563	312756	326717	398053	398915	401844	405515	407021	410203	417976	424358	436682	464449	474806	660343	679717	722853	749417	802700	863254	1120668	1223467	1342625	1496338	4727645	7266798	7410584	8564802	9350251	
A	39	2	5	6	7	8	9	10	11	12	13	14	15	16	17	18	19	20	21	22	23	24	25	26	27	28	29	30	31	32	33	34	35	36	37	38	39	40	41	
A	39	93723	93824	95068	96939	100251	105179	105248	105461	106135	120439	313970	328184	400417	401326	404527	408044	409640	412878	420858	427725	440508	468148	478937	661946	681839	726264	753140	807701	867098	1127212	1232694	1358820	1515950	4762459	7283354	7429456	8601502	9376674	
A	40	2	5	6	7	8	9	10	11	12	13	14	15	16	17	18	19	20	21	22	23	24	25	26	27	28	29	30	31	32	33	34	35	36	37	38	39	40	41	
A	40	98052	98175	99397	101132	104253	108371	108445	108701	109351	124524	325229	339565	412170	412994	416104	419557	421278	424550	432627	439637	451825	479530	490548	672125	692882	738088	763811	817732	880541	1141022	1247059	1378764	1533860	4743712	7262365	7409985	8546592	9336776	
A	41	2	5	6	7	8	9	10	11	12	13	14	15	16	17	18	19	20	21	22	23	24	25	26	27	28	29	30	31	32	33	34	35	36	37	38	39	40	41	
A	41	102988	103124	104352	106291	109512	114215	114272	114529	115219	130377	327160	342547	414928	415808	418943	422410	424270	427636	435980	443191	454928	482039	493768	677173	698871	744291	769392	824626	887873	1149445	1257909	1394445	1553053	4757120	7280560	7426194	8548091	9324876	
A	42	2	5	6	7	8	9	10	11	12	13	14	15	16	17	18	19	20	21	22	23	24	25	26	27	28	29	30	31	32	33	34	35	36	37	38	39	40	41	
A	42	108716	108839	110056	111885	114790	118511	118576	118816	119537	134357	331041	348554	419062	420025	423402	426814	428745	432149	440486	448159	459981	487285	499782	682602	704790	751207	776412	832726	898522	1161913	1272580	1417009	1578297	4796654	7304810	7450698	8559459	9326167	
A	43	2	5	6	7	8	9	10	11	12	13	14	15	16	17	18	19	20	21	22	23	24	25	26	27	28	29	30	31	32	33	34	35	36	37	38	39	40	41	
A	43	115384	115529	116769	118647	121406	125129	125177	125399	126125	141169	335489	353126	422876	423948	427452	430725	432812	436269	445065	453114	464511	491188	504337	687594	710431	757819	783382	840801	908310	1176350	1290972	1441971	1606471	4844953	7358886	7506148	8596920	9352003	
A	44	2	5	6	7	8	9	10	11	12	13	14	15	16	17	18	19	20	21	22	23	24	25	26	27	28	29	30	31	32	33	34	35	36	37	38	39	40	41	
A	44	123098	123260	124342	126166	128887	132287	132351	132575	133226	146836	343095	362006	428670	429704	433052	436416	439529	442223	451022	459818	471256	498251	512417	693320	716573	764054	789591	847748	916513	1185968	1302259	1459995	1627184	4865345	7377770	7523403	8609523	9340131	
A	45	2	5	6	7	8	9	10	11	12	13	14	15	16	17	18	19	20	21	22	23	24	25	26	27	28	29	30	31	32	33	34	35	36	37	38	39	40	41	
A	45	133048	133182	134148	135854	138217	141205	141270	141491	142125	155317	350427	370886	437298	438403	441798	444973	448307	451086	459823	469076	480468	507343	522322	702539	726243	775070	801110	860479	930265	1201543	1322848	1489332	1660513	4885233	7381401	7528743	8612849	9324057	
A	46	2	5	6	7	8	9	10	11	12	13	14	15	16	17	18	19	20	21	22	23	24	25	26	27	28	29	30	31	32	33	34	35	36	37	38	39	40	41	
A	46	146031	146120	146924	148359	150314	152701	152742	152911	153509	166246	357431	379813	444530	445654	449024	452273	455755	458642	467436	476876	487975	514748	530628	710042	734383	784269	810615	871823	943317	1219075	1345409	1522426	1697540	4930782	7436258	7585617	8661986	9353830	
A	47	2	5	6	7	8	9	10	11	12	13	14	15	16	17	18	19	20	21	22	23	24	25	26	27	28	29	30	31	32	33	34	35	36	37	38	39	40	41	
A	47	162326	162369	162909	163992	165641	168174	168201	168311	168701	179407	366256	390422	454012	455223	458798	462063	465614	468240	476890	486712	497901	524208	540709	715247	739549	790613	816998	880106	953801	1229860	1359161	1542610	1721291	4953304	7460761	7608100	8662128	9329708	
A	48	2	6	7	8	9	11	12	13	14	15	16	17	18	19	20	21	22	23	24	25	26	27	28	29	30	31	32	33	34	35	36	37	38	39	40	41	
A	48	186787	186834	186992	187457	188511	188518	188596	195835	375103	399834	462276	463229	466034	468713	472254	474325	483108	490920	501995	527997	544087	711971	737154	786195	813185	874892	948945	1223734	1352303	1551375	1731474	4946963	7408130	7597954	8638659	9296766	
A	49	2	13	14	15	16	17	18	19	20	21	22	23	24	25	26	27	28	29	30	31	32	33	34	35	36	37	38	39	40	41	
A	49	239631	239651	434496	468034	546369	547474	550859	553865	557090	559275	568261	576233	587086	618045	634503	842710	869761	929619	955594	1025999	1134215	1460385	1609570	1835950	2038687	5212114	7661083	7834960	8703379	9351277	
T	0	2	10	13	14	16	18	19	22	23	25	26	27	28	30	31	32	33	34	38	
T	0	19857	30620	51454	152633	164911	227473	227667	228870	238243	278469	298785	481344	517689	626655	1210372	1668699	4365994	6238546	7088499	
T	1	2	10	13	14	16	18	19	22	23	25	26	27	28	30	31	32	33	34	38	
T	1	25962	34207	50852	200840	217871	287158	287875	289099	296766	348077	364854	720257	767558	881944	1434337	1938031	7405463	9952052	10876537	
T	2	2	10	13	14	16	18	19	22	23	25	26	27	28	30	31	32	33	34	38	
T	2	27297	36364	54653	193592	209613	280058	280280	281712	289580	335852	352787	623890	673451	788304	1334532	1802550	6424894	8859596	9918271	
T	3	2	10	13	14	15	16	19	22	25	26	27	28	29	30	31	32	33	34	35	37	38	
T	3	32354	40773	55069	224418	301429	304208	317104	318431	357539	364866	633399	675529	675584	721844	789488	1273255	6852315	8201446	8631110	10205583	11164515	
T	4	2	10	13	14	15	16	19	22	25	26	27	28	29	30	31	32	33	34	35	37	38	
T	4	31156	39218	54352	219851	293616	296372	308179	309455	345111	352306	586993	628585	629153	673619	744079	1245719	6297113	7556794	7983420	9545310	10443141	
T	5	2	8	10	11	13	14	15	16	17	18	19	21	22	23	25	26	27	28	29	30	31	32	33	34	35	36	37	38	40	
T	5	27002	28288	33864	37697	54607	173468	179462	231636	257867	258766	261975	262105	262165	264382	274865	304684	417822	486912	512212	542532	576921	735510	1058442	1104815	1837980	1981772	5476844	7512882	8198666	
T	6	2	6	8	10	11	13	14	15	16	17	18	19	21	22	23	24	25	26	27	28	29	30	31	32	33	34	35	36	37	38	40	
T	6	30521	30529	31838	36247	39045	54227	187307	191846	249206	261220	262027	263857	263983	264071	266182	266199	274511	306096	437490	469246	498048	525202	558479	643003	918915	970430	1702861	1898731	6133118	8371179	9072590	
T	7	2	5	6	8	10	11	13	14	15	16	17	18	19	20	21	22	23	24	25	26	27	28	29	30	31	32	33	34	35	36	37	38	40	
T	7	30052	30055	30059	31467	36106	38944	54821	184335	189076	245623	256031	256888	258614	258618	258815	258994	261313	261365	269877	301064	425242	450916	481093	507437	539587	616077	864416	914397	1442753	1611687	5905323	8035356	8762615	
T	8	2	5	6	7	8	10	11	12	13	14	15	16	17	18	19	20	21	22	23	24	25	26	27	28	29	30	31	32	33	34	35	36	37	38	39	40	
T	8	31941	31945	31948	31951	33466	38022	40482	40483	55102	180079	185101	243523	252953	254243	256108	256125	256367	256582	259081	259167	267707	294752	437463	460332	493228	519380	550671	619717	826346	914649	1059690	1129394	4379639	6687949	8259546	9008704	
T	9	2	5	6	7	8	9	10	11	12	13	14	15	16	17	18	19	20	21	22	23	24	25	26	27	28	29	30	31	32	33	34	35	36	37	38	39	40	
T	9	36621	36630	36648	36654	38180	38185	42661	45227	45236	60435	219381	224744	290593	299519	300662	302504	302523	302770	303162	305718	305876	314603	344687	510058	531550	571084	595822	629828	698441	957285	1049476	1197750	1277172	5281962	7907621	9472825	10212563	
T	10	2	5	6	7	8	9	10	11	12	13	14	15	16	17	18	19	20	21	22	23	24	25	26	27	28	29	30	31	32	33	34	35	36	37	38	39	40	
T	10	34897	34910	34921	34943	36521	36539	40988	43565	43587	58114	193710	198926	259071	268100	269273	271151	271175	271436	271916	274545	274818	283530	310192	458956	475491	510852	535551	566779	634304	850502	936790	1082772	1152994	4513374	6887900	8462502	9213795	
T	11	2	5	6	7	8	9	10	11	12	13	14	15	16	17	18	19	20	21	22	23	24	25	26	27	28	29	30	31	32	33	34	35	36	37	38	39	40	
T	11	38427	38433	38454	38480	40045	40091	44479	47003	47029	61687	216546	222404	284432	293361	294501	296394	296436	296698	297318	300091	300552	309446	338952	509441	525808	564422	588539	621137	688611	933370	1023674	1172784	1249149	5076271	7664541	9234255	9994088	
T	12	2	5	6	7	8	9	10	11	12	13	14	15	16	17	18	19	20	21	22	23	24	25	26	27	28	29	30	31	32	33	34	35	36	37	38	39	40	
T	12	38283	38292	38319	38356	39949	40043	44536	47158	47193	61261	201439	207075	266972	275908	277145	279159	279213	279551	280319	283252	283893	293117	320805	488423	503847	540577	564708	595896	664083	885977	975038	1125299	1198405	4687478	7172374	8724550	9479762	
T	13	2	5	6	7	8	9	10	11	12	13	14	15	16	17	18	19	20	21	22	23	24	25	26	27	28	29	30	31	32	33	34	35	36	37	38	39	40	41	
T	13	39942	39949	39994	40024	41740	41888	46484	48975	49025	65581	210545	214690	276884	286363	287795	289794	289848	290224	291280	292883	295283	305096	333344	520324	538059	574882	588316	630053	714455	936973	1029691	1088783	1238104	4633602	7249199	7427476	8605334	9701564	
T	14	2	5	6	7	8	9	10	11	12	13	14	15	16	17	18	19	20	21	22	23	24	25	26	27	28	29	30	31	32	33	34	35	36	37	38	39	40	41	
T	14	38619	38631	38668	38719	40551	40775	45289	47769	47818	61918	194547	198625	258135	267750	269138	271219	271295	271683	272835	274480	277062	287217	312808	471899	489136	522577	536332	576747	638904	844539	933436	989866	1133997	4149866	6541380	6718581	7862255	8946352	
T	15	2	5	6	7	8	9	10	11	12	13	14	15	16	17	18	19	20	21	22	23	24	25	26	27	28	29	30	31	32	33	34	35	36	37	38	39	40	41	
T	15	40955	40961	41025	41078	42909	43191	47616	50085	50138	64521	204877	209065	269966	279148	280442	282538	282625	283035	284582	286365	289408	300233	325750	494202	514172	546679	560940	602317	664232	879671	969587	1027849	1173805	4381039	6842859	7018001	8162069	9234950	
T	16	2	5	6	7	8	9	10	11	12	13	14	15	16	17	18	19	20	21	22	23	24	25	26	27	28	29	30	31	32	33	34	35	36	37	38	39	40	41	
T	16	44486	44502	44570	44629	46522	46986	51305	53650	53716	72150	226552	231233	295629	304262	305542	307600	307702	308217	310486	312406	316707	328447	354148	549897	572248	604163	619257	660914	749268	970746	1062834	1123723	1273747	4587325	7173944	7347640	8532682	9599515	
T	17	2	5	6	7	8	9	10	11	12	13	14	15	16	17	18	19	20	21	22	23	24	25	26	27	28	29	30	31	32	33	34	35	36	37	38	39	40	41	
T	17	45921	45931	46031	46116	48159	48760	53233	55642	55721	69856	227088	231694	296466	305156	306524	308744	308849	309375	311804	313844	318360	331213	355904	541830	565847	596130	612078	653971	715367	941172	1034150	1096574	1247311	4553529	7093061	7266126	8421626	9477451	
T	18	2	5	6	7	8	9	10	11	12	13	14	15	16	17	18	19	20	21	22	23	24	25	26	27	28	29	30	31	32	33	34	35	36	37	38	39	40	41	
T	18	47063	47081	47168	47281	49348	50138	54504	56873	56989	73938	219147	224675	290684	292276	300801	303235	303373	304063	306884	309047	314017	328694	351838	547218	571956	601051	618064	660436	730717	943626	1045706	1109217	1244529	4515542	7051612	7249938	8434566	9497428	
T	19	2	5	6	7	8	9	10	11	12	13	14	15	16	17	18	19	20	21	22	23	24	25	26	27	28	29	30	31	32	33	34	35	36	37	38	39	40	41	
T	19	47167	47184	47301	47499	49684	50724	54936	57017	57145	70918	216173	221348	288174	290033	298028	300288	300457	301194	304514	306863	312609	328465	350505	531588	556662	585449	603937	646161	707172	915370	1019074	1084443	1219655	4499539	6990191	7195389	8348721	9406619	
T	20	2	5	6	7	8	9	10	11	12	13	14	15	16	17	18	19	20	21	22	23	24	25	26	27	28	29	30	31	32	33	34	35	36	37	38	39	40	41	
T	20	48324	48342	48499	48659	50979	52276	56092	57834	57994	71749	219120	224289	291839	294017	301331	303625	303834	304622	308410	310979	317353	335403	355632	537129	560988	589724	609330	652109	712776	923334	1026099	1092380	1227412	4544268	7030988	7238891	8386124	9423937	
T	21	2	5	6	7	8	9	10	11	12	13	14	15	16	17	18	19	20	21	22	23	24	25	26	27	28	29	30	31	32	33	34	35	36	37	38	39	40	41	
T	21	48775	48794	48966	49191	51652	53152	56823	58420	58572	72398	228762	234174	303176	305463	311379	313705	313939	314907	319091	321874	328766	348932	366982	547613	570629	600055	620875	663018	722236	933370	1035352	1103264	1239428	4535845	7007012	7217811	8362532	9384894	
T	22	2	5	6	7	8	9	10	11	12	13	14	15	16	17	18	19	20	21	22	23	24	25	26	27	28	29	30	31	32	33	34	35	36	37	38	39	40	41	
T	22	50368	50385	50593	50844	53464	55376	58927	60329	60564	74773	222431	228433	298182	300559	305649	308092	308362	309421	313869	316812	324514	347545	363264	549547	571696	601536	624421	667104	725237	940967	1042504	1113145	1249111	4572326	7051787	7267431	8411100	9419451	
T	23	2	5	6	7	8	9	10	11	12	13	14	15	16	17	18	19	20	21	22	23	24	25	26	27	28	29	30	31	32	33	34	35	36	37	38	39	40	41	
T	23	52058	52084	52343	52628	55331	57512	60954	62468	62718	76603	226674	232675	301974	304446	309149	311707	312030	313313	318057	321088	329610	354956	368053	554185	575589	605776	630065	672547	730438	943773	1045170	1117105	1253210	4587456	7079176	7276885	8395928	9428484	
T	24	2	5	6	7	8	9	10	11	12	13	14	15	16	17	18	19	20	21	22	23	24	25	26	27	28	29	30	31	32	33	34	35	36	37	38	39	40	41	
T	24	53477	53512	53820	54174	57042	59536	62501	63568	63868	78705	226927	233333	302537	305222	309509	312023	312426	313834	318755	321995	331304	359958	370295	553798	574015	604822	630779	673348	731517	943190	1046145	1120691	1258094	4562948	7040980	7238376	8367200	9377330	
T	25	2	5	6	7	8	9	10	11	12	13	14	15	16	17	18	19	20	21	22	23	24	25	26	27	28	29	30	31	32	33	34	35	36	37	38	39	40	41	
T	25	55582	55617	55970	56428	59610	62537	65861	67161	67509	82224	233525	240317	309467	312171	316042	318772	319263	320888	325886	329287	339246	370838	378922	565011	584675	615852	644177	687409	744991	959707	1063097	1140944	1279930	4605946	7111789	7308605	8437654	9425867	
T	26	2	5	6	7	8	9	10	11	12	13	14	15	16	17	18	19	20	21	22	23	24	25	26	27	28	29	30	31	32	33	34	35	36	37	38	39	40	41	
T	26	57504	57542	57940	58455	61682	64954	67865	68863	69292	84145	235533	242616	313370	316282	319979	322533	323118	324952	330324	333938	344231	378071	383944	573392	592217	624166	654006	697324	752429	968108	1071437	1151517	1290518	4598576	7080832	7277967	8423340	9387436	
T	27	2	5	6	7	8	9	10	11	12	13	14	15	16	17	18	19	20	21	22	23	24	25	26	27	28	29	30	31	32	33	34	35	36	37	38	39	40	41	
T	27	59136	59172	59616	60200	63692	67304	70285	71233	71687	86203	237030	244438	314814	317828	321009	323729	324434	326407	331914	335743	347124	382255	387145	574053	592732	624841	656268	700140	756098	971389	1075350	1157772	1296880	4587083	7085332	7280704	8424090	9359291	
T	28	2	5	6	7	8	9	10	11	12	13	14	15	16	17	18	19	20	21	22	23	24	25	26	27	28	29	30	31	32	33	34	35	36	37	38	39	40	41	
T	28	61363	61411	61913	62607	66036	70049	72566	73249	73758	88083	240790	248500	320055	323201	325889	328644	329450	331649	337406	341191	353052	388732	393788	581723	600826	633358	666597	711661	767291	986453	1090736	1175774	1315822	4626142	7139765	7335143	8488725	9406736	
T	29	2	5	6	7	8	9	10	11	12	13	14	15	16	17	18	19	20	21	22	23	24	25	26	27	28	29	30	31	32	33	34	35	36	37	38	39	40	41	
T	29	64582	64642	65212	65981	69643	74150	76502	76941	77486	94042	244748	252904	326668	329592	331817	334679	335512	337686	343633	348016	360544	397321	402691	595088	614945	648402	682839	728070	789064	1007397	1112718	1202482	1343661	4633268	7211701	7405533	8624648	9519217	
T	30	2	5	6	7	8	9	10	11	12	13	14	15	16	17	18	19	20	21	22	23	24	25	26	27	28	29	30	31	32	33	34	35	36	37	38	39	40	41	
T	30	66329	66393	67058	67950	71539	76078	78191	78497	79161	93538	249527	257890	329840	332584	334673	337562	338602	340889	347122	351670	364676	400601	406356	591535	611693	644817	680460	726657	780299	1001040	1106105	1198192	1339243	4631052	7151657	7341213	8511053	9379236	
T	31	2	5	6	7	8	9	10	11	12	13	14	15	16	17	18	19	20	21	22	23	24	25	26	27	28	29	30	31	32	33	34	35	36	37	38	39	40	41	
T	31	69767	69826	70552	71498	75163	80003	81851	82103	82808	97365	257100	265728	339842	342142	344121	347214	348387	350856	357449	362097	375538	412380	418646	612101	632649	666911	703023	750361	807006	1034905	1140186	1236208	1378996	4697614	7296102	7483543	8701897	9555245	
T	32	2	5	6	7	8	9	10	11	12	13	14	15	16	17	18	19	20	21	22	23	24	25	26	27	28	29	30	31	32	33	34	35	36	37	38	39	40	41	
T	32	71465	71546	72379	73441	77129	82298	83630	83875	84715	99854	252545	261537	335272	337062	339079	342190	343537	346329	352819	357839	371226	408104	414924	601130	622651	657149	695267	743684	796079	1022895	1128932	1228525	1371722	4660988	7165855	7350599	8535756	9366924	
T	33	2	5	6	7	8	9	10	11	12	13	14	15	16	17	18	19	20	21	22	23	24	25	26	27	28	29	30	31	32	33	34	35	36	37	38	39	40	41	
T	33	73169	73257	74154	75366	79115	84612	85716	86006	86926	101675	260102	269075	342129	343550	345698	348886	350441	353268	360075	365354	379248	416199	423774	608897	631056	665850	704758	753739	805443	1034030	1140061	1242935	1385459	4683688	7190059	7369166	8539937	9350817	
T	34	2	5	6	7	8	9	10	11	12	13	14	15	16	17	18	19	20	21	22	23	24	25	26	27	28	29	30	31	32	33	34	35	36	37	38	39	40	41	
T	34	74898	74975	75946	77196	80579	85806	86336	86636	87643	102622	259660	268909	341794	342716	344825	347855	349613	352433	359822	365094	378480	414748	422713	609197	631900	666605	703110	751695	803688	1032594	1134820	1238645	1377831	4665515	7178929	7366206	8545335	9357669	
T	35	2	5	6	7	8	9	10	11	12	13	14	15	16	17	18	19	20	21	22	23	24	25	26	27	28	29	30	31	32	33	34	35	36	37	38	39	40	41	
T	35	80109	80200	81223	82612	86240	91927	92338	92698	93730	109956	269032	278440	351251	351991	354121	357216	359065	361955	369164	374778	388053	424293	432828	620087	643547	679631	717060	766645	825473	1057332	1162058	1270728	1411075	4701204	7289231	7470472	8676318	9482744	
T	36	2	5	6	7	8	9	10	11	12	13	14	15	16	17	18	19	20	21	22	23	24	25	26	27	28	29	30	31	32	33	34	35	36	37	38	39	40	41	
T	36	82707	82824	83913	85414	88990	94354	94588	94995	96135	110430	270549	280330	354180	354786	357147	360263	362367	365520	373311	379421	392902	428984	438199	623053	647380	683759	722091	772903	824017	1057373	1162882	1275812	1417617	4697012	7197475	7374294	8521852	9323545	
T	37	2	5	6	7	8	9	10	11	12	13	14	15	16	17	18	19	20	21	22	23	24	25	26	27	28	29	30	31	32	33	34	35	36	37	38	39	40	41	
T	37	89281	89406	90517	92129	95612	101004	101161	101645	102862	119958	282795	292925	367047	367613	370154	373341	375664	378835	386808	392998	406471	442487	452631	643825	669033	706280	744676	796578	856272	1095324	1202671	1321259	1464574	4752163	7307559	7484972	8687117	9477785	
T	38	2	5	6	7	8	9	10	11	12	13	14	15	16	17	18	19	20	21	22	23	24	25	26	27	28	29	30	31	32	33	34	35	36	37	38	39	40	41	
T	38	91622	91736	92928	94595	98214	103616	103771	104303	105593	120854	284579	296201	369053	369656	372329	375500	378210	381148	389659	397025	411381	446855	458266	651827	678562	716939	755390	808554	863613	1106887	1215845	1339931	1484410	4808069	7296262	7483373	8611749	9387588	
T	39	2	5	6	7	8	9	10	11	12	13	14	15	16	17	18	19	20	21	22	23	24	25	26	27	28	29	30	31	32	33	34	35	36	37	38	39	40	41	
T	39	92609	92750	93922	95620	99121	103996	104131	104621	105810	120623	282218	293592	366539	367120	369922	373159	375855	378732	387109	394978	408792	443524	455187	643695	670966	709441	746570	800769	855107	1097222	1207399	1335522	1480658	4776405	7237950	7425561	8556378	9308065	
T	40	2	5	6	7	8	9	10	11	12	13	14	15	16	17	18	19	20	21	22	23	24	25	26	27	28	29	30	31	32	33	34	35	36	37	38	39	40	41	
T	40	97550	97681	98878	100515	103592	108046	108165	108722	109930	124592	294657	306006	379203	379808	382602	385776	388650	391466	400086	408027	421322	455423	467657	658222	686574	726138	760201	813825	870390	1113688	1223443	1353910	1498348	4780548	7250810	7448662	8590141	9340410	
T	41	2	5	6	7	8	9	10	11	12	13	14	15	16	17	18	19	20	21	22	23	24	25	26	27	28	29	30	31	32	33	34	35	36	37	38	39	40	41	
T	41	105539	105694	106926	108660	111915	116179	116318	116913	118184	135759	307910	320076	392255	392856	395705	398969	402093	404947	414219	422459	435722	469457	482650	687436	716987	756997	790947	845185	910779	1160697	1272050	1407658	1554856	4883488	7413594	7604364	8760212	9511526	
T	42	2	5	6	7	8	9	10	11	12	13	14	15	16	17	18	19	20	21	22	23	24	25	26	27	28	29	30	31	32	33	34	35	36	37	38	39	40	41	
T	42	107441	107595	108808	110666	113653	117496	117644	118325	119577	133776	299456	313088	382566	383271	386503	389613	393041	395955	405252	414127	427378	460946	475203	664478	695097	736278	770631	825877	885208	1132028	1246202	1388507	1537361	4829719	7293759	7481828	8574424	9325740	
T	43	2	5	6	7	8	9	10	11	12	13	14	15	16	17	18	19	20	21	22	23	24	25	26	27	28	29	30	31	32	33	34	35	36	37	38	39	40	41	
T	43	114014	114194	115517	117373	120286	123747	123893	124621	125964	140364	306172	320114	389980	390756	394093	397394	401202	404294	413837	423109	436109	469120	484635	674606	705766	748357	781923	839213	901375	1152495	1269441	1416835	1570373	4885335	7363020	7551031	8621188	9360753	
T	44	2	5	6	7	8	9	10	11	12	13	14	15	16	17	18	19	20	21	22	23	24	25	26	27	28	29	30	31	32	33	34	35	36	37	38	39	40	41	
T	44	126943	127142	128319	130119	133056	136302	136474	137259	138459	156721	325667	340890	408186	409011	412185	415311	420053	422591	432459	442653	455945	488805	505306	706858	739403	781925	815233	873624	946196	1198188	1318082	1471115	1627252	4940208	7477564	7660572	8762052	9484771	
T	45	2	5	6	7	8	9	10	11	12	13	14	15	16	17	18	19	20	21	22	23	24	25	26	27	28	29	30	31	32	33	34	35	36	37	38	39	40	41	
T	45	132783	133001	134115	135902	138611	141449	141613	142256	143392	155866	323199	339450	406510	407267	410718	413821	418831	421269	431218	441885	454763	487358	504889	691299	723681	767310	801065	860135	924395	1179059	1301882	1461648	1622098	4933398	7397567	7583010	8647343	9351749	
T	46	2	5	6	7	8	9	10	11	12	13	14	15	16	17	18	19	20	21	22	23	24	25	26	27	28	29	30	31	32	33	34	35	36	37	38	39	40	41	
T	46	144075	144255	145180	146750	149069	151476	151621	152216	153213	165151	330095	347840	412927	413865	417583	420565	425839	428348	438367	449659	462418	494814	513492	700115	733257	778047	811832	872963	938989	1197594	1326053	1493061	1658021	4981613	7446711	7631337	8682249	9367195	
T	47	2	5	6	7	8	9	10	11	12	13	14	15	16	17	18	19	20	21	22	23	24	25	26	27	28	29	30	31	32	33	34	35	36	37	38	39	40	41	
T	47	162286	162363	162942	163939	165773	167939	168009	168383	169021	178832	341305	360325	424395	425316	429134	432055	437660	440084	449929	461696	474268	506350	526012	707587	741249	787226	820627	883210	951355	1210139	1341995	1515265	1684918	5007096	7466856	7652912	8684763	9349855	
T	48	2	6	7	8	9	11	12	13	14	15	16	17	18	19	20	21	22	23	24	25	26	27	28	29	30	31	32	33	34	35	36	37	38	39	40	41	
T	48	186891	186926	187047	187363	188305	188314	188455	194745	354222	373547	437098	437845	440955	443325	448614	450726	460541	469367	482492	514054	532898	709381	744006	788512	821915	883386	951804	1211352	1342211	1526315	1698952	5017473	7450202	7662178	8663331	9332056	
T	49	2	13	14	15	16	17	18	19	20	21	22	23	24	25	26	27	28	29	30	31	32	33	34	35	36	37	38	39	40	41	
T	49	232758	232769	409740	434824	513654	514479	518000	520606	525564	527729	537766	546572	559308	595487	614594	828390	864579	918884	951171	1022214	1126296	1431758	1584696	1793394	1989628	5235150	7646164	7851800	8699537	9347598	
G	0	2	10	13	14	16	18	19	22	23	25	26	27	28	30	31	32	33	34	38	
G	0	27419	39837	58381	281572	298015	365957	366132	367226	376279	418117	437248	735950	775560	881634	1419015	1872844	6582999	8052623	8622547	
G	1	2	10	13	14	16	18	19	22	23	25	26	27	28	30	31	32	33	34	38	
G	1	21085	31927	45387	179430	194278	247788	248124	250791	259127	285219	304073	471377	503590	584541	1061492	1368097	3776520	5375500	5855290	
G	2	2	10	13	14	16	18	19	22	23	25	26	27	28	30	31	32	33	34	38	
G	2	19368	30912	44629	167408	181881	232363	232496	236027	243622	267812	286253	448675	480228	554964	994193	1303468	3702115	5361472	5811977	
G	3	2	10	13	14	15	16	19	22	25	26	27	28	29	30	31	32	33	34	35	37	38	
G	3	19172	29448	42529	155381	199864	204510	213852	216349	236540	245847	350680	379803	379873	415071	457889	767451	2751912	3242650	3518124	4858845	5367543	
G	4	2	10	13	14	15	16	19	22	25	26	27	28	29	30	31	32	33	34	35	37	38	
G	4	20401	30265	44434	152876	197786	202418	210108	212765	233261	242837	349101	379046	379269	415641	460786	822153	2836583	3341864	3627000	5045357	5639131	
G	5	2	6	8	10	11	13	14	15	16	17	18	19	21	22	23	24	25	26	27	28	29	30	31	32	33	34	35	36	37	38	40	
G	5	29303	29319	33824	41582	42827	56927	217436	227220	268340	281296	283231	284526	285432	285757	290756	290860	302628	326250	446097	486492	511371	541193	580035	696850	985294	1021159	1628157	1722648	4941210	6679255	7167088	
G	6	2	5	6	8	9	10	11	12	13	14	15	16	17	18	19	20	21	22	23	24	25	26	27	28	29	30	31	32	33	34	35	36	37	38	40	
G	6	30034	30039	30043	34195	34196	39936	40754	40758	53022	209882	218103	257629	264313	265938	266992	266999	267999	268366	273060	273101	282790	304547	420541	441925	467181	493435	524771	598575	827911	861726	1429077	1541525	4898364	6499005	6929083	
G	7	2	5	6	7	8	10	11	12	13	14	15	16	17	18	19	20	21	22	23	24	25	26	27	28	29	30	31	32	33	34	35	36	37	38	40	
G	7	28805	28808	28812	28814	33015	38977	39871	39875	52053	205422	213795	251803	257620	259297	260396	260398	261512	261915	266768	266823	276010	297527	407905	423894	449887	474586	502303	565245	765689	798605	1173557	1266892	4647002	6162291	6580866	
G	8	2	5	6	7	8	10	11	12	13	14	15	16	17	18	19	20	21	22	23	24	25	26	27	28	29	30	31	32	33	34	35	36	37	38	39	40	
G	8	30492	30495	30506	30508	34780	39884	40604	40614	53299	209814	217556	255703	260188	262051	263154	263162	264363	264876	269972	270077	279457	297914	427928	441794	468688	493084	518129	582824	772009	824223	945413	993065	3465485	5154070	6413861	6898129	
G	9	2	5	6	7	8	9	10	11	12	13	14	15	16	17	18	19	20	21	22	23	24	25	26	27	28	29	30	31	32	33	34	35	36	37	38	39	40	
G	9	28564	28571	28593	28602	32856	32857	38147	38890	38898	50963	176234	184149	216149	221049	222837	223942	223960	225130	225770	230771	230938	239997	255847	356365	366959	390373	414090	436291	493126	648481	694444	810925	850058	2671160	4081345	5350810	5771105	
G	10	2	5	6	7	8	9	10	11	12	13	14	15	16	17	18	19	20	21	22	23	24	25	26	27	28	29	30	31	32	33	34	35	36	37	38	39	40	
G	10	35645	35658	35681	35693	39925	39927	45125	45829	45840	59098	236807	245359	284475	289021	290948	292081	292097	293322	294178	299124	299384	308639	329186	478045	489765	519300	542996	568816	632396	851020	904601	1028890	1083201	4020897	6053707	7304981	7777918	
G	11	2	5	6	7	8	9	10	11	12	13	14	15	16	17	18	19	20	21	22	23	24	25	26	27	28	29	30	31	32	33	34	35	36	37	38	39	40	
G	11	33849	33864	33901	33919	37988	38000	43060	43804	43825	55075	203943	212364	247252	251534	253368	254488	254504	255740	256621	261581	261920	271048	287958	405037	413774	439900	463197	486203	542161	716458	763796	882187	926528	3110545	4673296	5914999	6329091	
G	12	2	5	6	7	8	9	10	11	12	13	14	15	16	17	18	19	20	21	22	23	24	25	26	27	28	29	30	31	32	33	34	35	36	37	38	39	40	
G	12	37969	37983	38035	38062	42224	42265	47521	48292	48317	61086	223422	232539	268575	273342	275152	276311	276349	277613	278868	283946	284524	293925	312448	456219	466632	494636	518167	542330	607912	805010	856156	978802	1028812	3605563	5432334	6671242	7150765	
G	13	2	5	6	7	8	9	10	11	12	13	14	15	16	17	18	19	20	21	22	23	24	25	26	27	28	29	30	31	32	33	34	35	36	37	38	39	40	41	
G	13	36670	36686	36745	36786	41046	41122	46703	47501	47541	59441	205725	211188	246750	252735	254848	256139	256183	257545	259045	262650	265086	274734	291099	415045	424292	449698	461159	493999	538612	718104	767464	814701	913054	2979092	4521680	4622205	5368568	6299930	
G	14	2	5	6	7	8	9	10	11	12	13	14	15	16	17	18	19	20	21	22	23	24	25	26	27	28	29	30	31	32	33	34	35	36	37	38	39	40	41	
G	14	37278	37287	37348	37399	41623	41749	46752	47484	47533	59050	212176	218246	254322	259199	261242	262528	262580	264005	266108	269660	272453	282356	299630	431819	442292	468120	479936	513446	558603	748860	800621	850232	950984	3152335	4793920	4894431	5640233	6563066	
G	15	2	5	6	7	8	9	10	11	12	13	14	15	16	17	18	19	20	21	22	23	24	25	26	27	28	29	30	31	32	33	34	35	36	37	38	39	40	41	
G	15	38954	38971	39054	39095	43453	43614	48716	49393	49427	63035	212957	218835	254596	259286	261328	262639	262692	264174	266776	270457	273864	284007	300090	434155	445261	469795	481924	515015	572587	758334	809714	859017	960729	3101426	4767570	4869976	5668389	6582928	
G	16	2	5	6	7	8	9	10	11	12	13	14	15	16	17	18	19	20	21	22	23	24	25	26	27	28	29	30	31	32	33	34	35	36	37	38	39	40	41	
G	16	39220	39237	39340	39404	43625	43857	48573	49239	49279	61056	217544	223528	259981	264407	266433	267717	267785	269384	272440	276262	279981	290675	305899	436321	447674	471308	484083	518050	563105	745417	796025	845530	946251	3036060	4589070	4691921	5448997	6361907	
G	17	2	5	6	7	8	9	10	11	12	13	14	15	16	17	18	19	20	21	22	23	24	25	26	27	28	29	30	31	32	33	34	35	36	37	38	39	40	41	
G	17	41040	41065	41184	41291	45838	46200	51581	52389	52449	66120	224504	230734	267327	272390	274529	275923	276015	277723	281799	285616	290078	301173	316139	459499	472052	495285	508478	541899	595393	780612	831292	881555	981861	3061734	4713593	4816031	5596181	6497727	
G	18	2	5	6	7	8	9	10	11	12	13	14	15	16	17	18	19	20	21	22	23	24	25	26	27	28	29	30	31	32	33	34	35	36	37	38	39	40	41	
G	18	42304	42332	42462	42591	47142	47572	53023	53773	53856	65397	217210	223606	261072	261960	268737	270267	270352	272149	276999	281094	286107	298059	312456	448978	461343	485019	499136	533499	578694	758149	819322	871059	967394	3119839	4707697	4821362	5590741	6490058	
G	19	2	5	6	7	8	9	10	11	12	13	14	15	16	17	18	19	20	21	22	23	24	25	26	27	28	29	30	31	32	33	34	35	36	37	38	39	40	41	
G	19	42673	42696	42861	43028	47596	48212	53225	53946	54043	65406	214681	221511	258291	259474	265987	267524	267621	269646	274868	279007	284211	296741	310303	442037	454070	477111	491917	525302	571266	747518	808991	861590	957319	3108202	4677231	4792750	5557686	6446639	
G	20	2	5	6	7	8	9	10	11	12	13	14	15	16	17	18	19	20	21	22	23	24	25	26	27	28	29	30	31	32	33	34	35	36	37	38	39	40	41	
G	20	44951	44973	45170	45336	49861	50525	54408	54896	55002	68423	217063	224156	262399	263545	268403	269748	269888	272040	278179	282490	288263	301707	314307	448332	460195	483622	499265	533154	586099	762620	824315	878786	975600	3125954	4784509	4901969	5711999	6591567	
G	21	2	5	6	7	8	9	10	11	12	13	14	15	16	17	18	19	20	21	22	23	24	25	26	27	28	29	30	31	32	33	34	35	36	37	38	39	40	41	
G	21	46617	46638	46868	47085	51709	52562	56197	56645	56783	70118	230678	238167	277563	278807	283160	284546	284709	287055	294329	298696	305188	319682	331038	464794	476121	500335	516797	551012	603411	783839	846133	902366	1000376	3145478	4826414	4946219	5757894	6628603	
G	22	2	5	6	7	8	9	10	11	12	13	14	15	16	17	18	19	20	21	22	23	24	25	26	27	28	29	30	31	32	33	34	35	36	37	38	39	40	41	
G	22	48125	48168	48443	48710	53478	54582	57985	58403	58539	71992	222501	230168	269240	270501	274526	276066	276277	278815	286563	290943	298186	313615	323867	458712	469829	493525	510870	544552	595241	774968	836209	894219	991962	3128941	4788499	4909221	5734718	6591202	
G	23	2	5	6	7	8	9	10	11	12	13	14	15	16	17	18	19	20	21	22	23	24	25	26	27	28	29	30	31	32	33	34	35	36	37	38	39	40	41	
G	23	50194	50217	50566	50922	56106	57425	61223	61719	61889	73536	223435	231733	270766	272286	276750	278403	278656	281525	289877	294459	302344	319167	328104	458083	468921	493330	511436	545742	590617	769031	830874	890727	988643	3124949	4720023	4841481	5605508	6465833	
G	24	2	5	6	7	8	9	10	11	12	13	14	15	16	17	18	19	20	21	22	23	24	25	26	27	28	29	30	31	32	33	34	35	36	37	38	39	40	41	
G	24	50512	50553	50967	51351	56221	57735	60531	60875	61107	72970	222663	231052	269404	270814	274180	275785	276086	279209	287908	292405	300840	318631	326555	456062	466416	491118	510329	544931	589798	767957	829637	891248	989864	3123099	4731426	4853843	5624101	6474875	
G	25	2	5	6	7	8	9	10	11	12	13	14	15	16	17	18	19	20	21	22	23	24	25	26	27	28	29	30	31	32	33	34	35	36	37	38	39	40	41	
G	25	50745	50790	51234	51724	57204	59040	62896	63380	63672	75496	229265	237919	276717	278541	282439	284250	284625	288079	297354	301900	310852	330362	337106	467618	477622	502680	522868	557681	603220	782848	844447	908295	1007291	3141590	4734938	4858300	5635607	6466078	
G	26	2	5	6	7	8	9	10	11	12	13	14	15	16	17	18	19	20	21	22	23	24	25	26	27	28	29	30	31	32	33	34	35	36	37	38	39	40	41	
G	26	52639	52681	53212	53808	59018	60826	63657	64026	64318	77871	227791	237204	276753	278320	281348	283169	283623	287255	296696	301367	310582	331357	337101	471854	481605	507353	528395	563727	615663	797116	859776	927036	1027854	3176768	4864451	4991185	5820616	6635299	
G	27	2	5	6	7	8	9	10	11	12	13	14	15	16	17	18	19	20	21	22	23	24	25	26	27	28	29	30	31	32	33	34	35	36	37	38	39	40	41	
G	27	54391	54450	55099	55808	61513	63753	66888	67224	67592	79933	232223	241685	281680	283448	286524	288503	289049	293133	302828	307509	317450	338535	344310	476905	486838	512949	534656	570851	616718	799521	862642	932057	1032942	3195857	4817756	4946726	5738319	6529025	
G	28	2	5	6	7	8	9	10	11	12	13	14	15	16	17	18	19	20	21	22	23	24	25	26	27	28	29	30	31	32	33	34	35	36	37	38	39	40	41	
G	28	58471	58523	59251	60032	65596	67985	70191	70453	70879	84285	233854	243386	283309	285020	287700	289555	290169	294493	304217	308738	318865	339881	345744	480273	490307	516658	539471	576144	628864	814668	878062	950285	1051777	3226294	4915957	5046107	5884314	6658818	
G	29	2	5	6	7	8	9	10	11	12	13	14	15	16	17	18	19	20	21	22	23	24	25	26	27	28	29	30	31	32	33	34	35	36	37	38	39	40	41	
G	29	60043	60103	60894	61731	67130	69719	71825	72009	72463	84137	233343	243149	283754	285421	287902	289851	290575	294674	304338	309377	319737	340669	346781	477354	487768	514787	538264	575543	620879	807430	870910	946796	1049613	3210681	4831126	4962823	5758230	6513386	
G	30	2	5	6	7	8	9	10	11	12	13	14	15	16	17	18	19	20	21	22	23	24	25	26	27	28	29	30	31	32	33	34	35	36	37	38	39	40	41	
G	30	64064	64138	65040	66023	71150	73758	75385	75516	76039	90204	244081	253862	293868	295272	297678	299751	300587	304942	314864	319923	330579	351569	358267	491466	502466	529291	553147	590573	645267	832892	896655	976110	1079787	3241750	4945638	5077993	5913083	6649149	
G	31	2	5	6	7	8	9	10	11	12	13	14	15	16	17	18	19	20	21	22	23	24	25	26	27	28	29	30	31	32	33	34	35	36	37	38	39	40	41	
G	31	64640	64724	65692	66778	71962	74892	76208	76312	76903	88389	240826	250801	291498	292691	295107	297213	298103	302710	312762	317818	328674	348670	355778	487884	498799	526215	550411	588675	634321	823331	887566	970588	1074285	3220079	4833331	4967147	5768877	6487340	
G	32	2	5	6	7	8	9	10	11	12	13	14	15	16	17	18	19	20	21	22	23	24	25	26	27	28	29	30	31	32	33	34	35	36	37	38	39	40	41	
G	32	66691	66787	67847	69067	74038	77030	77959	78109	78751	90853	239854	249906	290002	290982	293435	295753	296842	301747	312087	317247	328103	348906	356435	487655	499207	527102	551492	590278	636370	828615	893503	980394	1085697	3250366	4878603	5013645	5813857	6513518	
G	33	2	5	6	7	8	9	10	11	12	13	14	15	16	17	18	19	20	21	22	23	24	25	26	27	28	29	30	31	32	33	34	35	36	37	38	39	40	41	
G	33	70641	70743	72006	73393	78415	81813	82592	82742	83451	97788	251486	261750	303037	303853	306370	308847	310101	315214	325903	331387	342354	363339	371543	504380	516557	545344	570130	610612	666577	859985	926485	1019333	1126996	3289771	4997110	5134025	5988753	6672581	
G	34	2	5	6	7	8	9	10	11	12	13	14	15	16	17	18	19	20	21	22	23	24	25	26	27	28	29	30	31	32	33	34	35	36	37	38	39	40	41	
G	34	71062	71188	72500	73830	78116	81088	81469	81637	82343	94604	247496	257752	297365	298008	300476	302864	304297	309238	320051	325394	336435	356728	365280	497390	509421	537526	562296	602484	649913	845524	911208	1007478	1112477	3289759	4917340	5061493	5846205	6535512	
G	35	2	5	6	7	8	9	10	11	12	13	14	15	16	17	18	19	20	21	22	23	24	25	26	27	28	29	30	31	32	33	34	35	36	37	38	39	40	41	
G	35	73507	73614	75041	76547	81466	85438	85841	86058	86869	99082	250232	260820	300729	301397	304018	306455	307987	313070	323866	329206	340328	359893	369111	500186	513209	542073	566086	606767	654046	849613	914916	1014057	1119174	3265874	4892361	5030305	5814177	6505813	
G	36	2	5	6	7	8	9	10	11	12	13	14	15	16	17	18	19	20	21	22	23	24	25	26	27	28	29	30	31	32	33	34	35	36	37	38	39	40	41	
G	36	76528	76652	78131	79745	83743	86968	87118	87324	88175	99824	256216	266805	306980	307565	310173	312818	314518	319868	330954	336627	347613	367406	377247	510898	524481	554006	578006	619265	667733	870723	937645	1043086	1149884	3330897	4959809	5096319	5873095	6555712	
G	37	2	5	6	7	8	9	10	11	12	13	14	15	16	17	18	19	20	21	22	23	24	25	26	27	28	29	30	31	32	33	34	35	36	37	38	39	40	41	
G	37	80255	80376	82019	83732	88037	91648	91727	91957	92881	104659	262983	273723	313767	314422	317272	319886	321757	327200	338641	344535	355923	375109	385379	519331	533469	563543	587491	629373	678160	881823	950095	1060929	1169092	3340931	4950291	5089096	5861342	6525015	
G	38	2	5	6	7	8	9	10	11	12	13	14	15	16	17	18	19	20	21	22	23	24	25	26	27	28	29	30	31	32	33	34	35	36	37	38	39	40	41	
G	38	83487	83639	85303	87052	91067	94409	94461	94733	95708	107808	261152	272841	312438	313060	315892	318663	320682	325262	336601	343668	355211	374364	385481	520243	534947	565881	589845	632474	683339	886719	956562	1074771	1185458	3330235	4954013	5098056	5862802	6512405	
G	39	2	5	6	7	8	9	10	11	12	13	14	15	16	17	18	19	20	21	22	23	24	25	26	27	28	29	30	31	32	33	34	35	36	37	38	39	40	41	
G	39	91446	91594	93294	95062	98615	101652	101699	101965	102938	115856	269750	281638	322161	322803	325815	328598	330792	335465	346926	354332	365857	385009	396675	534709	550768	582564	606584	650486	709212	918867	991560	1117743	1231353	3408618	5100198	5247212	6063824	6693093	
G	40	2	5	6	7	8	9	10	11	12	13	14	15	16	17	18	19	20	21	22	23	24	25	26	27	28	29	30	31	32	33	34	35	36	37	38	39	40	41	
G	40	97701	97856	99520	101271	104388	106925	106965	107232	108204	120473	280602	292826	332828	333512	336464	339029	341393	346020	357677	365322	376310	394844	406785	542438	559136	591119	614212	658025	716871	929574	1002630	1137706	1250464	3415331	5098707	5255170	6051685	6668735	
G	41	2	5	6	7	8	9	10	11	12	13	14	15	16	17	18	19	20	21	22	23	24	25	26	27	28	29	30	31	32	33	34	35	36	37	38	39	40	41	
G	41	102179	102349	104114	105940	109301	112366	112405	112694	113640	125364	282597	295273	334834	335587	338661	341335	343727	348363	360230	368416	379453	397715	410157	547821	565076	597738	620407	664996	719500	935265	1009906	1152171	1267718	3427628	5048169	5197346	5925445	6545424	
G	42	2	5	6	7	8	9	10	11	12	13	14	15	16	17	18	19	20	21	22	23	24	25	26	27	28	29	30	31	32	33	34	35	36	37	38	39	40	41	
G	42	112450	112590	114181	115846	118607	120888	120931	121222	122193	136401	295161	308625	346410	347210	350349	352991	355485	360138	372302	380848	392381	410460	423640	566870	584773	618341	641352	687379	750781	970234	1048024	1200667	1318178	3494597	5186458	5334397	6092585	6701765	
G	43	2	5	6	7	8	9	10	11	12	13	14	15	16	17	18	19	20	21	22	23	24	25	26	27	28	29	30	31	32	33	34	35	36	37	38	39	40	41	
G	43	120292	120462	121997	123689	126272	128477	128526	128785	129650	141935	293786	307361	345322	346120	349408	351944	354519	359199	370980	379904	390964	408489	422090	559745	577717	612332	635226	681324	744827	964486	1044193	1206369	1325608	3474372	5156575	5305319	6050363	6640931	
G	44	2	5	6	7	8	9	10	11	12	13	14	15	16	17	18	19	20	21	22	23	24	25	26	27	28	29	30	31	32	33	34	35	36	37	38	39	40	41	
G	44	125717	125889	127389	129088	131508	133573	133601	133858	134682	145760	301213	315492	351502	352374	355360	357951	361828	365338	376924	386676	397837	416145	430615	564221	583014	617501	641059	688549	746135	972103	1055446	1229540	1351718	3511868	5130818	5278298	5974958	6549554	
G	45	2	5	6	7	8	9	10	11	12	13	14	15	16	17	18	19	20	21	22	23	24	25	26	27	28	29	30	31	32	33	34	35	36	37	38	39	40	41	
G	45	136286	136427	137683	139116	141212	143011	143056	143290	143992	153648	307410	322527	357948	358811	361750	364263	368216	371507	383139	393328	404132	421964	436485	569040	587903	623455	646923	695352	755017	983548	1069098	1254583	1378441	3543119	5150176	5297414	5986345	6536892	
G	46	2	5	6	7	8	9	10	11	12	13	14	15	16	17	18	19	20	21	22	23	24	25	26	27	28	29	30	31	32	33	34	35	36	37	38	39	40	41	
G	46	154665	154764	155724	156912	158519	159812	159844	160043	160590	170836	320874	336562	370750	371643	374428	376847	380971	384082	395845	406273	416970	434527	449353	588241	607543	643447	667381	717095	793893	1024901	1113783	1309492	1436778	3599023	5255230	5402202	6117733	6645982	
G	47	2	5	6	7	8	9	10	11	12	13	14	15	16	17	18	19	20	21	22	23	24	25	26	27	28	29	30	31	32	33	34	35	36	37	38	39	40	41	
G	47	165704	165728	166322	167227	168744	170382	170398	170477	170829	178328	325327	342398	376334	377271	380202	382565	386760	389717	400949	411824	422520	439986	454848	585045	604609	641605	666661	717628	779568	1017139	1110305	1318442	1447518	3624967	5222827	5371540	6039346	6545434	
G	48	2	6	7	8	9	11	12	13	14	15	16	17	18	19	20	21	22	23	24	25	26	27	28	29	30	31	32	33	34	35	36	37	38	39	40	41	
G	48	184944	185012	185166	185525	186034	186038	186119	190869	332503	349873	382630	383427	385930	387772	391612	394157	405356	414589	424516	441151	456024	582502	602730	638150	662895	713284	774458	1011136	1101624	1331912	1459546	3650947	5225761	5402207	6050738	6563868	
G	49	2	13	14	15	16	17	18	19	20	21	22	23	24	25	26	27	28	29	30	31	32	33	34	35	36	37	38	39	40	41	
G	49	222333	222353	368529	390444	429725	430753	433710	435902	439753	442676	454066	464000	473917	491946	506224	653487	673117	714837	738895	792156	892417	1155446	1256092	1512740	1651231	3766979	5400193	5564681	6147042	6635537	
C	0	2	10	13	14	16	18	19	22	23	25	26	27	28	30	31	32	33	34	38	
C	0	14240	23661	39822	193339	204460	260218	260335	261032	268730	301840	317657	510174	542532	632680	1083170	1409268	4677386	6269273	6752431	
C	1	2	10	13	14	16	18	19	22	23	25	26	27	28	30	31	32	33	34	38	
C	1	18106	26880	38444	180768	192027	244942	245305	247018	253572	277751	292743	459270	488168	556162	909465	1156884	3913057	5665391	6149140	
C	2	2	10	13	14	16	18	19	22	23	25	26	27	28	30	31	32	33	34	38	
C	2	19475	29394	42762	180662	192192	244032	244163	246419	253479	278576	294922	470657	500948	572915	952237	1247840	4251947	6178883	6652143	
C	3	2	10	13	14	15	16	19	22	25	26	27	28	29	30	31	32	33	34	35	37	38	
C	3	21161	30920	44649	193342	247272	251442	259282	261251	284496	292865	440256	470335	470387	506701	553911	882322	3980775	4862501	5117066	6516638	7132316	
C	4	2	10	13	14	15	16	19	22	25	26	27	28	29	30	31	32	33	34	35	37	38	
C	4	23151	32933	43307	143816	184559	188909	195930	198151	217133	225784	318613	344404	344605	376829	412842	665751	2604065	3151540	3401797	4803409	5335094	
C	5	2	8	10	11	13	14	15	16	17	18	19	21	22	23	25	26	27	28	29	30	31	32	33	34	35	36	37	38	40	
C	5	21223	23960	32792	34544	46523	151003	156983	190810	206286	208093	209513	210051	210251	213397	223417	242192	314973	355333	372456	396375	421905	530920	746908	771446	1317237	1402642	3900511	5098244	5533350	
C	6	2	6	8	10	11	13	14	15	16	17	18	19	21	22	23	24	25	26	27	28	29	30	31	32	33	34	35	36	37	38	40	
C	6	22832	22834	25313	31800	33021	44042	160564	166207	202548	209517	211229	212564	213142	213343	216466	216473	224759	244076	326950	344793	364600	387171	409391	469095	645635	672591	1175007	1284451	4164158	5502660	5946387	
C	7	2	5	8	10	11	12	13	14	15	16	17	18	19	20	21	22	23	24	25	26	27	28	29	30	31	32	33	34	35	36	37	38	40	
C	7	25228	25229	27988	34603	35766	35767	46522	170987	176928	214993	220558	222490	223845	223847	224548	224807	228252	228280	236586	256857	343950	358293	379951	402659	424947	478473	649278	677268	1015303	1109742	4365189	5738156	6196707	
C	8	2	5	6	7	8	10	11	12	13	14	15	16	17	18	19	20	21	22	23	24	25	26	27	28	29	30	31	32	33	34	35	36	37	38	39	40	
C	8	31094	31096	31098	31103	33903	40195	41326	41329	51996	217362	224385	269654	274867	276988	278299	278302	279045	279395	282909	282980	291394	311252	451473	465983	494149	516737	541281	590607	803774	857393	969961	1023731	4436013	6510302	7865039	8321282	
C	9	2	5	6	7	8	9	10	11	12	13	14	15	16	17	18	19	20	21	22	23	24	25	26	27	28	29	30	31	32	33	34	35	36	37	38	39	40	
C	9	27807	27810	27814	27824	30647	30651	36721	37773	37777	48862	183323	190355	230224	234963	236919	238177	238178	238891	239324	242939	243049	251146	268495	373616	384653	409536	431149	452750	500822	671482	719355	825022	869866	3231756	4881172	6220725	6672124	
C	10	2	5	6	7	8	9	10	11	12	13	14	15	16	17	18	19	20	21	22	23	24	25	26	27	28	29	30	31	32	33	34	35	36	37	38	39	40	
C	10	27906	27911	27923	27935	30670	30686	36654	37716	37723	48758	164742	171034	206210	211029	213081	214375	214384	215149	215699	219292	219477	227666	243309	340580	349153	371546	392668	411823	459695	606727	650397	753556	791275	2784958	4182122	5514687	5967284	
C	11	2	5	6	7	8	9	10	11	12	13	14	15	16	17	18	19	20	21	22	23	24	25	26	27	28	29	30	31	32	33	34	35	36	37	38	39	40	
C	11	29942	29945	29956	29974	32720	32749	38735	39772	39783	52929	189214	196130	234420	239250	241444	242805	242819	243622	244281	248040	248334	256822	273381	382443	390156	414905	436867	457094	513151	677080	723217	830231	873267	3106888	4734187	6069530	6590086	
C	12	2	5	6	7	8	9	10	11	12	13	14	15	16	17	18	19	20	21	22	23	24	25	26	27	28	29	30	31	32	33	34	35	36	37	38	39	40	
C	12	30919	30923	30951	30973	33740	33816	39806	40917	40930	51541	185257	192184	230427	235341	237496	238871	238893	239682	240523	244316	244705	253204	270047	388832	397157	421769	443205	463700	512249	680844	727332	834455	878239	3267793	4877015	6189156	6639266	
C	13	2	5	6	7	8	9	10	11	12	13	14	15	16	17	18	19	20	21	22	23	24	25	26	27	28	29	30	31	32	33	34	35	36	37	38	39	40	41	
C	13	34892	34900	34929	34958	37710	37824	43870	44974	44993	55654	209489	215170	258677	264011	266204	267674	267694	268586	269699	271926	274283	283062	301034	434795	444666	471814	482673	515025	555442	746325	798511	842503	942796	3656045	5538990	5628881	6380222	7405611	
C	14	2	5	6	7	8	9	10	11	12	13	14	15	16	17	18	19	20	21	22	23	24	25	26	27	28	29	30	31	32	33	34	35	36	37	38	39	40	41	
C	14	34828	34832	34865	34906	37805	38012	43874	44994	45010	57421	194448	199653	239764	244875	247085	248554	248584	249465	250839	253153	255831	264894	281629	408202	418094	441668	452900	483458	530431	701104	750860	793168	887679	3193613	4899378	4991208	5801006	6828549	
C	15	2	5	6	7	8	9	10	11	12	13	14	15	16	17	18	19	20	21	22	23	24	25	26	27	28	29	30	31	32	33	34	35	36	37	38	39	40	41	
C	15	34592	34599	34642	34684	37594	37907	43779	44811	44842	55772	187815	193107	232797	237805	240051	241430	241464	242370	244000	246373	249450	258514	274574	390486	400608	423394	435013	465365	506072	670391	719791	761838	855971	3054194	4650576	4742857	5507978	6528194	
C	16	2	5	6	7	8	9	10	11	12	13	14	15	16	17	18	19	20	21	22	23	24	25	26	27	28	29	30	31	32	33	34	35	36	37	38	39	40	41	
C	16	34772	34779	34841	34899	37958	38391	43921	44890	44909	55658	194627	200102	239836	244644	246841	248409	248443	249443	251520	253918	257187	266772	281906	399872	410334	432030	443844	474285	514766	679479	727716	770081	863970	3044153	4628313	4721045	5489301	6503411	
C	17	2	5	6	7	8	9	10	11	12	13	14	15	16	17	18	19	20	21	22	23	24	25	26	27	28	29	30	31	32	33	34	35	36	37	38	39	40	41	
C	17	34975	34982	35035	35124	38409	38994	44461	45439	45488	56352	196164	202064	242009	246634	248941	250519	250572	251729	254284	256864	260814	270889	285906	408581	419902	441217	453834	484406	525289	691688	740461	784097	877953	3031308	4604199	4697605	5480571	6493484	
C	18	2	5	6	7	8	9	10	11	12	13	14	15	16	17	18	19	20	21	22	23	24	25	26	27	28	29	30	31	32	33	34	35	36	37	38	39	40	41	
C	18	36404	36413	36502	36612	39934	40606	46599	47721	47767	58756	191770	197670	238403	239455	246279	248019	248087	249242	252299	254974	259505	270425	284785	408517	420426	441665	455224	486052	527315	684476	744114	788954	879056	3042810	4624829	4734490	5520188	6521301	
C	19	2	5	6	7	8	9	10	11	12	13	14	15	16	17	18	19	20	21	22	23	24	25	26	27	28	29	30	31	32	33	34	35	36	37	38	39	40	41	
C	19	37013	37022	37125	37283	40616	41484	46744	47635	47689	58270	191416	197453	238329	239444	245366	247015	247089	248361	251933	254719	259613	271243	284664	404675	416775	438075	452056	482757	523781	680283	740153	785902	875364	3060706	4654867	4765384	5553309	6543514	
C	20	2	5	6	7	8	9	10	11	12	13	14	15	16	17	18	19	20	21	22	23	24	25	26	27	28	29	30	31	32	33	34	35	36	37	38	39	40	41	
C	20	38538	38552	38663	38867	42319	43527	48099	48847	48909	59879	190292	196736	238749	240031	245458	247113	247214	248741	252661	255603	261091	273654	286448	404612	415978	437639	452630	483729	524209	679026	738917	786375	876700	3057461	4665191	4777212	5570577	6560883	
C	21	2	5	6	7	8	9	10	11	12	13	14	15	16	17	18	19	20	21	22	23	24	25	26	27	28	29	30	31	32	33	34	35	36	37	38	39	40	41	
C	21	40177	40189	40341	40535	44036	45455	49893	50505	50586	61340	200846	207417	250513	251850	256577	258259	258371	259968	264239	267212	273325	286694	298254	417765	428984	451117	466702	497814	537408	695148	755139	804307	895362	3094772	4714226	4828256	5625460	6600664	
C	22	2	5	6	7	8	9	10	11	12	13	14	15	16	17	18	19	20	21	22	23	24	25	26	27	28	29	30	31	32	33	34	35	36	37	38	39	40	41	
C	22	41367	41377	41547	41822	45519	47165	51146	51725	51825	62816	195188	202025	245780	247199	251466	253201	253351	255085	259842	262901	269388	284403	294942	417513	428426	450527	467374	498713	538257	696411	755944	806855	898496	3087387	4699782	4814267	5615648	6577420	
C	23	2	5	6	7	8	9	10	11	12	13	14	15	16	17	18	19	20	21	22	23	24	25	26	27	28	29	30	31	32	33	34	35	36	37	38	39	40	41	
C	23	41778	41797	42022	42376	46347	48335	52117	52659	52782	64144	196138	203320	246404	247795	251920	253699	253890	255773	261001	264320	271518	287778	296894	417146	427867	450549	468364	499822	539676	695634	755090	807456	899482	3072635	4680120	4794491	5587129	6557136	
C	24	2	5	6	7	8	9	10	11	12	13	14	15	16	17	18	19	20	21	22	23	24	25	26	27	28	29	30	31	32	33	34	35	36	37	38	39	40	41	
C	24	43642	43655	43889	44289	48149	50370	53580	53999	54140	65479	196651	203983	246626	248121	251782	253554	253738	255829	261160	264365	272023	289500	297040	415538	425768	448380	467153	498479	537592	693490	753885	807674	899549	3077138	4698018	4811730	5608876	6558535	
C	25	2	5	6	7	8	9	10	11	12	13	14	15	16	17	18	19	20	21	22	23	24	25	26	27	28	29	30	31	32	33	34	35	36	37	38	39	40	41	
C	25	44903	44922	45243	45773	49998	52739	56209	56679	56872	68073	201764	209489	252402	253794	257319	259304	259585	261932	267356	270724	279091	298110	304370	423954	433542	456586	476365	507929	546736	703733	763913	819926	912572	3093866	4707874	4822536	5623296	6553115	
C	26	2	5	6	7	8	9	10	11	12	13	14	15	16	17	18	19	20	21	22	23	24	25	26	27	28	29	30	31	32	33	34	35	36	37	38	39	40	41	
C	26	46951	46976	47343	47918	52256	55279	58246	58597	58804	70270	201087	209140	252524	254147	257554	259476	259758	262309	267914	271354	279910	299864	305311	426779	436218	459312	480271	512168	550999	708917	769485	827827	920612	3110851	4723170	4840658	5654419	6571670	
C	27	2	5	6	7	8	9	10	11	12	13	14	15	16	17	18	19	20	21	22	23	24	25	26	27	28	29	30	31	32	33	34	35	36	37	38	39	40	41	
C	27	48336	48358	48819	49473	53908	57261	60165	60501	60727	71998	206672	214995	258405	260062	263230	265179	265531	268204	274094	277601	286652	306969	312064	434753	444273	468065	489817	522273	560762	722690	783244	843677	936154	3178294	4800421	4916854	5733546	6624060	
C	28	2	5	6	7	8	9	10	11	12	13	14	15	16	17	18	19	20	21	22	23	24	25	26	27	28	29	30	31	32	33	34	35	36	37	38	39	40	41	
C	28	51029	51052	51563	52308	56603	60031	62355	62580	62850	74182	204754	213348	256632	258319	261258	263265	263719	266687	272476	276215	285737	306262	311435	431592	441415	465358	487241	519827	558275	717098	776990	839696	932007	3124288	4738921	4856878	5676344	6539152	
C	29	2	5	6	7	8	9	10	11	12	13	14	15	16	17	18	19	20	21	22	23	24	25	26	27	28	29	30	31	32	33	34	35	36	37	38	39	40	41	
C	29	52830	52860	53391	54293	58563	62166	64244	64407	64758	75833	207976	216828	260366	261904	264674	266660	267257	270000	275869	279924	289525	309634	314994	435436	445563	469675	492256	525115	563516	726214	787134	852676	946484	3172896	4786451	4906379	5736783	6585815	
C	30	2	5	6	7	8	9	10	11	12	13	14	15	16	17	18	19	20	21	22	23	24	25	26	27	28	29	30	31	32	33	34	35	36	37	38	39	40	41	
C	30	55495	55524	56128	57136	61445	65452	67123	67257	67590	78890	215701	224387	267752	269152	271832	273884	274484	277475	283955	288016	298042	318223	323997	444344	454923	479292	502535	536261	574919	740234	801907	870841	965213	3193358	4815285	4936140	5771104	6600138	
C	31	2	5	6	7	8	9	10	11	12	13	14	15	16	17	18	19	20	21	22	23	24	25	26	27	28	29	30	31	32	33	34	35	36	37	38	39	40	41	
C	31	57229	57275	58015	59125	63446	67630	68980	69071	69456	80355	215266	224096	268450	269664	272282	274449	275144	278264	284580	288898	298984	318701	324763	446279	457098	482174	505281	539635	577886	742732	803943	875523	970769	3168290	4783495	4904584	5740509	6544374	
C	32	2	5	6	7	8	9	10	11	12	13	14	15	16	17	18	19	20	21	22	23	24	25	26	27	28	29	30	31	32	33	34	35	36	37	38	39	40	41	
C	32	59419	59453	60211	61396	65571	69782	70720	70836	71268	83088	215392	224429	268401	269434	272165	274443	275281	278655	285307	289749	299897	319877	326453	448316	459754	485097	508959	544373	582974	750264	812460	887982	983606	3202120	4814504	4938679	5785363	6576828	
C	33	2	5	6	7	8	9	10	11	12	13	14	15	16	17	18	19	20	21	22	23	24	25	26	27	28	29	30	31	32	33	34	35	36	37	38	39	40	41	
C	33	62300	62332	63178	64513	68602	73127	73849	73958	74494	86070	221987	230902	274935	275826	278606	280830	281729	285274	292048	296560	306746	326592	333524	453818	465733	491418	515058	551098	589656	758489	821412	900027	997922	3227345	4849571	4973149	5813749	6579324	
C	34	2	5	6	7	8	9	10	11	12	13	14	15	16	17	18	19	20	21	22	23	24	25	26	27	28	29	30	31	32	33	34	35	36	37	38	39	40	41	
C	34	64877	64918	65834	67159	70864	75070	75478	75597	76174	87964	221390	230665	274004	274720	277315	279518	280621	284056	290863	295603	305553	325234	332949	453623	465949	491714	515224	550956	589457	757384	819614	901708	997281	3199360	4808537	4942371	5769441	6544063	
C	35	2	5	6	7	8	9	10	11	12	13	14	15	16	17	18	19	20	21	22	23	24	25	26	27	28	29	30	31	32	33	34	35	36	37	38	39	40	41	
C	35	67960	68009	69013	70468	74457	78998	79234	79362	79956	91317	228216	237473	280429	281115	283966	286238	287397	291035	298128	303007	313199	332468	340640	461713	474750	500745	524750	560924	600241	771451	834755	921754	1018257	3228491	4827708	4958378	5775871	6555764	
C	36	2	5	6	7	8	9	10	11	12	13	14	15	16	17	18	19	20	21	22	23	24	25	26	27	28	29	30	31	32	33	34	35	36	37	38	39	40	41	
C	36	72897	72952	74137	75740	79408	83487	83613	83767	84409	97436	235303	244873	290496	291215	294086	296427	297688	301450	308596	313630	323808	343626	352003	476175	489879	516847	540334	578010	624456	798673	863896	955559	1054653	3279888	4957544	5086082	5951599	6717906	
C	37	2	5	6	7	8	9	10	11	12	13	14	15	16	17	18	19	20	21	22	23	24	25	26	27	28	29	30	31	32	33	34	35	36	37	38	39	40	41	
C	37	74773	74845	76060	77721	81280	85439	85541	85710	86333	97213	235787	245524	289375	290104	293044	295387	296853	300619	308116	313392	323353	342572	351515	474148	488668	516246	539565	577734	618248	794288	860925	957760	1058551	3288875	4891709	5022669	5827701	6571971	
C	38	2	5	6	7	8	9	10	11	12	13	14	15	16	17	18	19	20	21	22	23	24	25	26	27	28	29	30	31	32	33	34	35	36	37	38	39	40	41	
C	38	79867	79947	81110	82907	86361	90418	90476	90672	91380	104891	242032	252576	296562	297321	300331	302719	304260	307669	315119	321341	331509	350426	360192	488032	503378	531513	554697	593571	641947	818887	887093	990394	1092960	3306962	4955810	5093351	5960703	6690288	
C	39	2	5	6	7	8	9	10	11	12	13	14	15	16	17	18	19	20	21	22	23	24	25	26	27	28	29	30	31	32	33	34	35	36	37	38	39	40	41	
C	39	82250	82338	83561	85356	88754	92508	92544	92722	93424	104580	239172	249987	294019	294832	297976	300427	302063	305570	313436	319961	329920	348826	359005	481262	497051	526162	548906	588528	630857	810291	880527	990455	1095503	3316050	4921678	5061825	5857670	6561962	
C	40	2	5	6	7	8	9	10	11	12	13	14	15	16	17	18	19	20	21	22	23	24	25	26	27	28	29	30	31	32	33	34	35	36	37	38	39	40	41	
C	40	85657	85730	86924	88713	91670	94918	94964	95179	95867	107140	249809	260716	304568	305366	308293	310557	312349	315719	323697	330624	340500	358830	369409	494303	510852	539619	561980	602231	646230	828782	900534	1017451	1122663	3370530	4971727	5120688	5898838	6593077	
C	41	2	5	6	7	8	9	10	11	12	13	14	15	16	17	18	19	20	21	22	23	24	25	26	27	28	29	30	31	32	33	34	35	36	37	38	39	40	41	
C	41	89731	89816	91049	92805	95784	99447	99496	99715	100419	111850	250740	262468	305019	305863	309158	311646	313520	317002	325049	332315	342386	360459	371548	496184	513287	543325	565799	607025	652611	837922	912388	1037833	1146792	3358304	4951478	5097323	5859421	6557190	
C	42	2	5	6	7	8	9	10	11	12	13	14	15	16	17	18	19	20	21	22	23	24	25	26	27	28	29	30	31	32	33	34	35	36	37	38	39	40	41	
C	42	95404	95494	96665	98392	101293	104247	104294	104522	105199	116215	255905	268776	309877	310735	314030	316442	318545	321997	330203	337532	347264	365404	377227	502044	519535	550279	572505	614472	660994	847543	924725	1058270	1169330	3410280	5015270	5158460	5902016	6584634	
C	43	2	5	6	7	8	9	10	11	12	13	14	15	16	17	18	19	20	21	22	23	24	25	26	27	28	29	30	31	32	33	34	35	36	37	38	39	40	41	
C	43	102286	102382	103535	105256	107927	110719	110772	110998	111705	122800	258789	271928	313233	314148	317601	319865	321922	325467	333776	341536	351127	368992	381139	505520	523757	555035	577590	620631	668117	857703	937618	1080599	1194710	3444909	5041953	5187432	5920025	6585068	
C	44	2	5	6	7	8	9	10	11	12	13	14	15	16	17	18	19	20	21	22	23	24	25	26	27	28	29	30	31	32	33	34	35	36	37	38	39	40	41	
C	44	110663	110733	111763	113429	115894	118482	118529	118735	119389	129670	267562	281210	319667	320643	323769	326104	329087	331775	340132	348410	357719	375977	388944	510599	529505	560956	583392	627047	676543	867234	949948	1103149	1220592	3458476	5051312	5197064	5921278	6564347	
C	45	2	5	6	7	8	9	10	11	12	13	14	15	16	17	18	19	20	21	22	23	24	25	26	27	28	29	30	31	32	33	34	35	36	37	38	39	40	41	
C	45	125047	125128	126008	127562	129884	132087	132133	132293	132842	145537	284069	299310	338435	339437	342664	344982	348133	350853	359315	367626	376982	395406	408866	538426	557514	590344	613019	658487	720257	914268	1001383	1164430	1284939	3540376	5208310	5354732	6109079	6727112	
C	46	2	5	6	7	8	9	10	11	12	13	14	15	16	17	18	19	20	21	22	23	24	25	26	27	28	29	30	31	32	33	34	35	36	37	38	39	40	41	
C	46	130872	130928	131649	132926	134873	136765	136812	136948	137417	146380	279620	295969	333047	334037	337281	339492	342714	345286	353425	362428	371642	389883	403655	525554	544943	578125	601336	647826	698426	895264	985430	1159204	1282935	3532613	5122742	5268425	5976951	6571717	
C	47	2	5	6	7	8	9	10	11	12	13	14	15	16	17	18	19	20	21	22	23	24	25	26	27	28	29	30	31	32	33	34	35	36	37	38	39	40	41	
C	47	152410	152430	152907	153867	155424	157182	157204	157285	157602	169017	303425	320249	356143	357218	360704	362754	366300	368865	377487	386946	396364	414220	428783	556149	576004	610269	633876	681734	750653	952747	1048475	1236638	1364258	3615714	5247694	5396097	6141838	6713622	
C	48	2	6	7	8	9	10	11	12	13	14	15	16	17	18	19	20	21	22	23	24	25	26	27	28	29	30	31	32	33	34	35	36	37	38	39	40	41	
C	48	176122	176157	176308	176680	177450	177451	177454	177510	182753	311526	329363	364599	365443	368178	369928	373258	375389	384015	391371	400548	417554	431665	551351	571756	604769	628552	675001	732762	932206	1025389	1234936	1362639	3641123	5264729	5443789	6164829	6745522	
C	49	2	13	14	15	16	17	18	19	20	21	22	23	24	25	26	27	28	29	30	31	32	33	34	35	36	37	38	39	40	41	
C	49	200700	200729	334410	357442	401689	402700	405809	407724	410736	412976	421204	428752	437244	456574	470213	602717	622889	661435	684414	735207	800023	1028238	1133535	1367809	1509254	3744350	5303596	5469128	6045320	6601783	
N	0	2	
N	0	86831	
N	1	2	
N	1	65929	
N	2	2	
N	2	65093	
N	3	2	
N	3	64189	
N	4	2	
N	4	64639	
N	5	2	
N	5	58850	
N	6	2	
N	6	57838	
N	7	2	
N	7	60797	
N	8	2	
N	8	60244	
N	9	2	
N	9	58960	
N	10	2	
N	10	60177	
N	11	2	
N	11	63327	
N	12	2	
N	12	61550	
N	13	2	
N	13	61556	
N	14	2	
N	14	61054	
N	15	2	
N	15	59146	
N	16	2	
N	16	58439	
N	17	2	
N	17	57092	
N	18	2	
N	18	58702	
N	19	2	
N	19	62111	
N	20	2	
N	20	62857	
N	21	2	
N	21	62435	
N	22	2	
N	22	62601	
N	23	2	
N	23	62079	
N	24	2	
N	24	61563	
N	25	2	
N	25	61307	
N	26	2	
N	26	60861	
N	27	2	
N	27	60153	
N	28	2	
N	28	57023	
N	29	2	
N	29	59338	
N	30	2	
N	30	59692	
N	31	2	
N	31	58821	
N	32	2	
N	32	57873	
N	33	2	
N	33	60307	
N	34	2	
N	34	61035	
N	35	2	
N	35	61213	
N	36	2	
N	36	60786	
N	37	2	
N	37	59216	
N	38	2	
N	38	59468	
N	39	2	
N	39	60206	
N	40	2	
N	40	61002	
N	41	2	
N	41	60984	
N	42	2	
N	42	61694	
N	43	2	
N	43	61245	
N	44	2	
N	44	61197	
N	45	2	
N	45	60190	
N	46	2	
N	46	61276	
N	47	2	
N	47	61381	
N	48	2	
N	48	61788	
N	49	2	
N	49	63805	
